<svg xmlns="http://www.w3.org/2000/svg" width="24" height="24" version="1.1">
 <defs>
  <style id="current-color-scheme" type="text/css">
   .ColorScheme-Text { color:#a47056; } .ColorScheme-Highlight { color:#4285f4; } .ColorScheme-NeutralText { color:#ff9800; } .ColorScheme-PositiveText { color:#4caf50; } .ColorScheme-NegativeText { color:#f44336; }
  </style>
 </defs>
 <path style="fill:currentColor" class="ColorScheme-Text" d="M 6,5 C 5.45,5 5,5.45 5,6 v 12 c 0,0.55 0.45,1 1,1 h 6 V 17 H 7 V 7 h 1 v 5 h 4 4 V 7 h 1 v 5 h 2 V 7 L 17,5 Z m 4,2 h 2 v 4 h -2 z m 3.875,6 c 0,0 -0.875,0 -0.875,1 v 5 c 0,1 0.875,1 0.875,1 h 5.25 c 0,0 0.875,0 0.875,-1 v -5 c 0,-1 -0.875,-1 -0.875,-1 z M 15,14 h 3 v 1 h -1 v 3 h 1 v 1 h -3 v -1 h 1 v -3 h -1 z"/>
</svg>
