<svg xmlns="http://www.w3.org/2000/svg" width="24" height="24" version="1.1">
 <defs>
  <style id="current-color-scheme" type="text/css">
   .ColorScheme-Text { color:#a47056; } .ColorScheme-Highlight { color:#4285f4; } .ColorScheme-NeutralText { color:#ff9800; } .ColorScheme-PositiveText { color:#4caf50; } .ColorScheme-NegativeText { color:#f44336; }
  </style>
 </defs>
 <g transform="translate(1,1)">
  <path style="fill:currentColor" class="ColorScheme-Text" d="M 15,9 V 5 L 12.75,7.25 12,6.5 15.5,3 19,6.5 18.25,7.25 16,5 V 9 Z M 9,4 4,18 H 6.5 L 7.5625,15 H 12.438 L 13.5,18 H 16.25 L 11,4 Z M 10,8 11.75,13 H 8.25 Z"/>
 </g>
</svg>
