<svg xmlns="http://www.w3.org/2000/svg" width="24" height="24" version="1.1">
 <defs>
  <style id="current-color-scheme" type="text/css">
   .ColorScheme-Text { color:#a47056; } .ColorScheme-Highlight { color:#4285f4; } .ColorScheme-NeutralText { color:#ff9800; } .ColorScheme-PositiveText { color:#4caf50; } .ColorScheme-NegativeText { color:#f44336; }
  </style>
 </defs>
 <g transform="translate(4,4)">
  <path style="fill:currentColor" class="ColorScheme-Text" d="M 11,9 V 15 H 14 C 16,15 16,13 16,13 16,13 16,11.709 14.828,11.184 14.828,11.184 15,11 15,10.5 15,10.5 15,9 13.5,9 Z M 12,10 H 13.5 C 14,10 14,10.5 14,10.5 14,10.5 14,11 13.5,11 H 12 Z M 12,12 H 14 C 15,12 15,13 15,13 15,13 15,14 14,14 H 12 Z M 7,1 2,15 H 4.5 L 5.5625,12 H 10 V 8 H 11.625 L 9,1 Z M 8,5 9.75,10 H 6.25 Z"/>
 </g>
</svg>
