<svg xmlns="http://www.w3.org/2000/svg" width="24" height="24" version="1.1">
 <defs>
  <style id="current-color-scheme" type="text/css">
   .ColorScheme-Text { color:#a47056; } .ColorScheme-Highlight { color:#4285f4; } .ColorScheme-NeutralText { color:#ff9800; } .ColorScheme-PositiveText { color:#4caf50; } .ColorScheme-NegativeText { color:#f44336; }
  </style>
 </defs>
 <g transform="matrix(1,0,0,1,4,4)">
  <circle class="ColorScheme-Text" cx="14" cy="8" r="2" style="fill:currentColor"/>
  <path class="ColorScheme-Text" d="M 0,9 H 7 L 3.5,12.5 5,14 11,8 5,2 3.5,3.5 7,7 H 0 Z" style="fill:currentColor"/>
 </g>
</svg>
