<svg xmlns="http://www.w3.org/2000/svg" width="24" height="24" version="1.1">
 <defs>
  <style id="current-color-scheme" type="text/css">
   .ColorScheme-Text { color:#a47056; } .ColorScheme-Highlight { color:#4285f4; } .ColorScheme-NeutralText { color:#ff9800; } .ColorScheme-PositiveText { color:#4caf50; } .ColorScheme-NegativeText { color:#f44336; }
  </style>
 </defs>
 <g transform="translate(4,4)">
  <path style="opacity:.35;fill:currentColor" class="ColorScheme-Text" d="M 6,10 H 10 V 14 H 6 Z M 2,6 H 6 V 10 H 2 Z M 10,6 H 14 V 10 H 10 Z M 6,2 H 10 V 6 H 6 Z"/>
  <path style="fill:currentColor" class="ColorScheme-Text" d="M 10,10 H 14 V 14 H 10 Z M 2,10 H 6 V 14 H 2 Z M 6,6 H 10 V 10 H 6 Z"/>
 </g>
</svg>
