<svg xmlns="http://www.w3.org/2000/svg" width="24" height="24" version="1.1">
 <defs>
  <style id="current-color-scheme" type="text/css">
   .ColorScheme-Text { color:#a47056; } .ColorScheme-Highlight { color:#4285f4; } .ColorScheme-NeutralText { color:#ff9800; } .ColorScheme-PositiveText { color:#4caf50; } .ColorScheme-NegativeText { color:#f44336; }
  </style>
 </defs>
 <path style="fill:currentColor" class="ColorScheme-Text" d="M 16.585938,5 5,16.585938 V 18 h 1.4140625 l 2,-2 H 19 c 1,0 1,-1 1,-1 V 8 C 20,7 19,7 19,7 H 18 17.414062 L 18,6.4140625 V 5 Z M 5,7 C 4,7 4,8 4,8 v 7 c 0,1 1,1 1,1 L 7,14 H 6 V 9 h 3 v 1 H 7 v 1 h 2 v 1 l 1,-1 V 10 9 h 1 v 1 l 2,-2 1,-1 z m 4,5 H 7 v 2 z M 15.414062,9 H 18 v 1 h -2 v 1 h 2 v 1 h -2 v 1 h 2 v 1 H 15 V 10 9.414063 Z M 13,11.414063 V 13 h 1 v 1 h -1 -1 v -1 -0.585937 z"/>
</svg>
