<svg xmlns="http://www.w3.org/2000/svg" width="24" height="24" version="1.1">
 <defs>
  <style id="current-color-scheme" type="text/css">
   .ColorScheme-Text { color:#a47056; } .ColorScheme-Highlight { color:#4285f4; } .ColorScheme-NeutralText { color:#ff9800; } .ColorScheme-PositiveText { color:#4caf50; } .ColorScheme-NegativeText { color:#f44336; }
  </style>
 </defs>
 <g transform="translate(4,4)">
  <path style="fill:currentColor" class="ColorScheme-Text" d="M 9.8574219 1.4863281 L 8.1425781 2.5136719 L 11 7.2773438 L 11 8 L 9 8 L 9 9 L 11 9 L 11 10 L 9 10 L 9 11 L 11 11 L 11 15 L 13 15 L 13 11 L 15 11 L 15 10 L 13 10 L 13 9 L 15 9 L 15 8 L 13 8 L 13 7.2773438 L 15.857422 2.5136719 L 14.142578 1.4863281 L 12 5.0566406 L 9.8574219 1.4863281 z M 5.5 2 A 4.5 6.5 0 0 0 1.1269531 7 L 0 7 L 0 8 L 1.015625 8 A 4.5 6.5 0 0 0 1 8.5 A 4.5 6.5 0 0 0 1.0175781 9 L 0 9 L 0 10 L 1.1269531 10 A 4.5 6.5 0 0 0 5.5 15 A 4.5 6.5 0 0 0 9.2910156 12 L 7.0683594 12 A 2.5 4.5 0 0 1 5.5 12.996094 A 2.5 4.5 0 0 1 3.1464844 10 L 6 10 L 6 9 L 3.0195312 9 A 2.5 4.5 0 0 1 3 8.4960938 A 2.5 4.5 0 0 1 3.015625 8 L 8 8 L 8 7 L 3.1445312 7 A 2.5 4.5 0 0 1 5.5 3.9960938 A 2.5 4.5 0 0 1 7.0722656 5 L 9.2871094 5 A 4.5 6.5 0 0 0 5.5 2 z"/>
 </g>
</svg>
