<svg xmlns="http://www.w3.org/2000/svg" width="24" height="24" version="1.1">
 <defs>
  <style id="current-color-scheme" type="text/css">
   .ColorScheme-Text { color:#a47056; } .ColorScheme-Highlight { color:#4285f4; } .ColorScheme-NeutralText { color:#ff9800; } .ColorScheme-PositiveText { color:#4caf50; } .ColorScheme-NegativeText { color:#f44336; }
  </style>
 </defs>
 <g transform="translate(4,4)">
  <path style="fill:currentColor" class="ColorScheme-Text" d="M 10,8 V 9 H 12 V 8 Z M 4,10 V 12 H 7 V 10 Z M 10,6 V 7 H 12 V 6 Z M 4,7 V 9 H 7 V 7 Z M 10,4 V 5 H 12 V 4 Z M 8,4 V 12 H 9 V 4 Z M 4,4 V 6 H 7 V 4 Z M 3,1 C 1,1 1,3 1,3 V 15 H 15 V 3 C 15,3 15,1 13,1 Z M 3,3 H 13 V 13 H 3 Z"/>
 </g>
</svg>
