<svg xmlns="http://www.w3.org/2000/svg" width="24" height="24" version="1">
 <rect style="opacity:0.2" width="20" height="12" x="2" y="9.5" rx="1" ry="1"/>
 <path style="fill:#986c80" d="M 2,17 C 2,17.554 2.446,18 3,18 H 21 C 21.554,18 22,17.554 22,17 V 6 C 22,5.446 21.554,5 21,5 H 12 C 10.5,5 10,3 8.5,3 H 3 C 2.446,3 2,3.446 2,4"/>
 <rect style="opacity:0.2" width="20" height="12" x="2" y="8.5" rx="1" ry="1"/>
 <rect style="fill:#e4e4e4" width="16" height="8" x="4" y="7" rx="1" ry="1"/>
 <rect style="fill:#986c80" width="20" height="12" x="2" y="9" rx="1" ry="1"/>
 <path style="opacity:0.1;fill:#ffffff" d="M 3,3 C 2.446,3 2,3.446 2,4 V 4.5 C 2,3.946 2.446,3.5 3,3.5 H 8.5 C 10,3.5 10.5,5.5 12,5.5 H 21 C 21.554,5.5 22,5.946 22,6.5 V 6 C 22,5.446 21.554,5 21,5 H 12 C 10.5,5 10,3 8.5,3 Z"/>
 <g transform="translate(1,1)">
  <path style="fill:#1b293b" d="m11.2187 10c-0.1211 0-0.2187 0.223-0.2187 0.5v3c0 0.277 0.0976 0.5 0.2187 0.5h0.5625c0.1212 0 0.2188-0.223 0.2188-0.5v-0.75l0.0195-0.0234 1.0335 1.0332c0.196 0.1958 0.422 0.2849 0.508 0.1992l0.398-0.3985c0.086-0.0856-3e-3 -0.3119-0.199-0.5078l-1.053-1.0527 1.053-1.0527c0.196-0.1959 0.285-0.4222 0.199-0.5078l-0.398-0.3985c-0.086-0.0857-0.312 0.0034-0.508 0.1992l-1.0335 1.0332-0.0195-0.0234v-0.75c0-0.277-0.0976-0.5-0.2188-0.5zm-1.7734 0.793c-0.109-2e-3 -0.273 0.0855-0.4199 0.2324-0.1959 0.1959-0.2849 0.4221-0.1992 0.5078l0.5898 0.5898c-0.1767 0.2663-0.3006 0.564-0.3652 0.877h-0.8321c-0.1211 0-0.2187 0.223-0.2187 0.5s0.0976 0.5 0.2187 0.5h0.836c0.0634 0.3127 0.186 0.6104 0.3613 0.877l-0.5898 0.5898c-0.0857 0.0857 0.0033 0.3119 0.1992 0.5078 0.1959 0.1954 0.4221 0.2854 0.5078 0.1994l0.5898-0.59c0.2663 0.1767 0.564 0.3006 0.877 0.3652v0.8318c0 0.121 0.223 0.219 0.5 0.219s0.5-0.098 0.5-0.219v-0.8357c0.3127-0.0634 0.6104-0.186 0.877-0.3613l0.59 0.59c0.085 0.086 0.312-3e-3 0.508-0.1994 0.195-0.1959 0.285-0.4221 0.199-0.5078l-0.59-0.5898c0.158-0.2396 0.274-0.5045 0.342-0.7833l-0.365 0.3653c-0.086 0.0857-0.312-0.0034-0.508-0.1992l-0.176-0.1758c-0.2341 0.5536-0.7759 0.9141-1.377 0.916-0.8284 0-1.5-0.6716-1.5-1.5 0.0013-0.4252 0.1831-0.8298 0.5-1.1133v-1.1719c-0.1312 0.0562-0.2573 0.1235-0.377 0.2012l-0.5898-0.5898c-0.0214-0.0215-0.0516-0.0326-0.0879-0.0332z"/>
 </g>
</svg>
