<svg xmlns="http://www.w3.org/2000/svg" width="24" height="24" version="1">
 <rect style="opacity:0.2" width="20" height="12" x="2" y="9.5" rx="1" ry="1"/>
 <path style="fill:#986c80" d="M 2,17 C 2,17.554 2.446,18 3,18 H 21 C 21.554,18 22,17.554 22,17 V 6 C 22,5.446 21.554,5 21,5 H 12 C 10.5,5 10,3 8.5,3 H 3 C 2.446,3 2,3.446 2,4"/>
 <path style="opacity:0.1;fill:#ffffff" d="M 3,3 C 2.446,3 2,3.446 2,4 V 4.5 C 2,3.946 2.446,3.5 3,3.5 H 8.5 C 10,3.5 10.5,5.5 12,5.5 H 21 C 21.554,5.5 22,5.946 22,6.5 V 6 C 22,5.446 21.554,5 21,5 H 12 C 10.5,5 10,3 8.5,3 Z"/>
 <rect style="opacity:0.2" width="20" height="12" x="2" y="8.5" rx="1" ry="1"/>
 <rect style="fill:#e4e4e4" width="16" height="8" x="4" y="7" rx="1" ry="1"/>
 <rect style="fill:#986c80" width="20" height="12" x="2" y="9" rx="1" ry="1"/>
 <path style="fill:#1b293b" d="M 12.586,10 C 12.401,10 12.222,10.051 12.076,10.182 L 9.748,12.09 C 9.6261,12.199 9.5469,12.348 9.5234,12.51 L 9.3301,13.787 9.5195,13.899 C 10.044,14.239 10.819,14.817 11.215,15.785 11.256,15.886 11.294,15.991 11.328,16.096 11.656,16.012 11.993,16.024 12.326,16 12.065,15.175 11.98,14.461 12.004,13.899 12.034,13.203 12.238,12.663 12.453,12.237 L 12.609,11.928 C 12.755,11.639 12.876,11.404 12.934,11.178 13,10.921 13.012,10.752 12.898,10.379 L 12.809,10.045 C 12.737,10.016 12.662,10 12.586,10 Z M 13.941,11.239 C 13.931,11.302 13.918,11.365 13.902,11.426 13.808,11.796 13.646,12.1 13.498,12.385 L 13.354,12.672 C 13.17,13.045 13.025,13.416 13.002,13.942 12.98,14.456 13.081,15.233 13.447,16.172 13.808,16.286 14.882,16.724 15.652,18.072 15.915,17.659 16.325,17.014 16.441,16.817 16.515,16.692 16.503,16.535 16.416,16.42 16.188,16.119 15.755,15.507 15.516,14.94 15.275,14.357 15.236,13.453 15.234,13.012 15.233,12.844 15.181,12.681 15.076,12.549 Z M 12.193,17.01 C 11.964,17.017 11.726,17.047 11.486,17.088 11.487,17.202 11.482,17.318 11.469,17.438 11.406,18.026 11.19,18.681 10.793,19.51 11.018,19.514 11.344,19.521 11.74,19.549 12.342,19.592 13.243,19.822 13.85,19.982 14.254,20.09 14.783,19.69 15.004,19.256 L 15.064,19.137 14.947,18.883 C 14.469,17.855 13.792,17.364 13.209,17.147 12.917,17.038 12.567,16.998 12.193,17.01 Z M 9.0117,14.762 C 8.6647,15.404 8.0527,16.52 8.0527,16.52 7.9121,16.772 7.9884,17.092 8.1895,17.299 L 9.8867,19.088 C 10.257,18.317 10.429,17.759 10.475,17.332 10.523,16.882 10.451,16.561 10.289,16.166 10.035,15.536 9.5307,15.159 9.0117,14.762 Z"/>
</svg>
