<svg xmlns="http://www.w3.org/2000/svg" width="16" height="16" version="1.1">
 <path style="fill:#a47056" d="M 10 1 L 10 9.1894531 C 9.68 9.0694531 9.36 9 9 9 C 7.34 9 6 10.34 6 12 C 6 13.66 7.34 15 9 15 C 10.66 15 12 13.66 12 12 L 12 5 L 15 5 L 15 1 L 10 1 z M 1 3 L 1 11 L 8 7 L 1 3 z"/>
</svg>
