<svg xmlns="http://www.w3.org/2000/svg" width="16" height="16" version="1.1">
 <path style="fill:#a47056" d="M 1,1 C 1,1 0,1 0,2 v 10 c 0,1 1,1 1,1 h 2 l 1,1 h 7 l 1,-1 h 2 c 0,0 1,0.13 1,-1 V 2 C 15,1 14,1 14,1 Z M 2,3 H 3 V 5 H 4 V 3 H 5 V 5 H 6 V 3 H 7 V 5 H 8 V 3 h 1 v 2 h 1 V 3 h 1 v 2 h 1 V 3 h 1 v 8 h -2 l -1,1 H 5 L 4,11 H 2 Z"/>
</svg>
