<svg xmlns="http://www.w3.org/2000/svg" width="16" height="16" version="1.1">
 <path style="opacity:.35;fill:#a47056" d="M 1,8 C 1,11.866 4.134,15 8,15 9.9252,15 11.68,14.117 13,12.715 12.482,12.847 12.034,13 11.5,13 7.9101,13 5,10.09 5,6.5 5,4.267 6.1294,2.19 8,1 4.1145,1 1,4.134 1,8 Z"/>
</svg>
