<svg xmlns="http://www.w3.org/2000/svg" width="16" height="16" version="1.1">
 <path style="fill:#a47056" d="M 1,1 C 0,1 0,2 0,2 v 10 c 0,1 1,1 1,1 h 5 c 0,0 -1,0 -1,1 v 1 h 6 v -1 c 0,-1 -1,-1 -1,-1 h 5 c 1,0 1,-1 1,-1 V 2 C 16,2 16,1 15,1 Z M 9,3 13,5.8808594 9,8.7597656 V 7 H 7.5351562 C 6.6675626,6.8920326 5.8843414,7.7162528 5.6464844,8.4394531 5.3700559,9.3034524 6.5722656,11 6.5722656,11 6.5722656,11 4,10.040937 4,7.9609375 4,5.9641375 5.2862725,5 7.2148438,5 H 9 Z"/>
</svg>
