<svg xmlns="http://www.w3.org/2000/svg" width="16" height="16" version="1.1">
 <path style="opacity:0.15;fill:#a47056" d="M 8 1 A 7 7 0 0 0 1 8 A 7 7 0 0 0 8 15 A 7 7 0 0 0 15 8 A 7 7 0 0 0 8 1 z M 8 3 A 5 5 0 0 1 13 8 A 5 5 0 0 1 8 13 A 5 5 0 0 1 3 8 A 5 5 0 0 1 8 3 z"/>
 <path style="fill:#a47056" d="M 8,1 C 6.14,1 4.36,1.74 3.05,3.05 1.74,4.36 1,6.14 1,8 A 1,1 0 0 0 2,9 1,1 0 0 0 3,8 C 3,6.67 3.53,5.4 4.46,4.46 5.4,3.53 6.67,3 8,3 A 1,1 0 0 0 9,2 1,1 0 0 0 8,1 Z"/>
</svg>
