<svg xmlns="http://www.w3.org/2000/svg" width="16" height="16" version="1.1">
 <path style="fill:#a47056" d="M 6,1 5,2 V 3 H 1 V 12.5 C 1,14 2.5,14 2.5,14 H 13.5 C 13.5,14 15,14 15,12.5 V 3 H 11 V 2 L 10,1 Z M 6,2 H 10 V 3 H 6 Z"/>
</svg>
