<svg xmlns="http://www.w3.org/2000/svg" width="16" height="16" version="1.1">
 <path style="fill:#a47056" d="M 7.9960938 0 A 6.0132737 6.01 0 0 0 2.1230469 4.7773438 C 1.5937587 7.3113437 2.8119047 9.8125156 4.9960938 11.103516 L 4.9980469 12.001953 A 1.0005447 1 0 0 0 6 13 L 10.001953 13 A 1.0005447 1 0 0 0 11.001953 12.001953 L 11.005859 11.101562 C 13.190048 9.8085625 14.407241 7.3044844 13.876953 4.7714844 A 6.0122731 6.009 0 0 0 7.9980469 0 L 7.9960938 0 z M 7.9960938 2 C 9.8971288 2 11.527804 3.3216406 11.916016 5.1816406 A 3.9921734 3.99 0 0 1 9.6035156 9.6660156 A 1.0005447 1 0 0 0 9.0019531 10.580078 L 9.0019531 11 L 6.9980469 11 L 6.9980469 10.582031 A 1.0005447 1 0 0 0 6.3964844 9.6679688 A 3.995175 3.993 0 0 1 4.0800781 5.1835938 A 3.9921734 3.99 0 0 1 7.9960938 2 z M 6 14 L 6 15 C 6 15.554 6.446 16 7 16 L 9 16 C 9.554 16 10 15.554 10 15 L 10 14 L 6 14 z"/>
 <path opacity=".35" style="fill:#a47056" d="M 6.9998468,6.0003943 A 0.49883538,0.49839022 0 0 0 6.6526575,6.8576254 l 0.9976707,0.9967804 a 0.49883538,0.49839022 0 0 0 0.7053532,0 L 9.3533522,6.8576254 A 0.49911295,0.49866755 0 1 0 8.6479989,6.1519048 L 8.0025059,6.7968218 7.3580107,6.1519048 A 0.49883538,0.49839022 0 0 0 6.9988492,6.0003943 Z"/>
</svg>
