<svg xmlns="http://www.w3.org/2000/svg" width="48" height="48" version="1">
 <rect style="opacity:0.2" width="40" height="26" x="4" y="17" rx="2" ry="2"/>
 <path style="fill:#986c80" d="M 4,34 C 4,35.108 4.892,36 6,36 H 42 C 43.108,36 44,35.108 44,34 V 12 C 44,10.892 43.108,10 42,10 H 24 C 21,10 20,6 17,6 H 6 C 4.892,6 4,6.892 4,8"/>
 <rect style="opacity:0.2" width="40" height="22" x="4" y="19" rx="2" ry="2"/>
 <rect style="fill:#e4e4e4" width="36" height="16" x="6" y="13" rx="2" ry="2"/>
 <rect style="fill:#986c80" width="40" height="22" x="4" y="20" rx="2" ry="2"/>
 <path style="opacity:0.1;fill:#ffffff" d="M 6,6 C 4.892,6 4,6.892 4,8 V 9 C 4,7.892 4.892,7 6,7 H 17 C 20,7 21,11 24,11 H 42 C 43.108,11 44,11.892 44,13 V 12 C 44,10.892 43.108,10 42,10 H 24 C 21,10 20,6 17,6 Z"/>
 <path style="fill:#1b293b" d="M 21,32.176 C 20.679,32.061 20.341,32.001 20,32 18.343,32 17,33.343 17,35 17,36.657 18.343,38 20,38 21.657,38 23,36.657 23,35 V 28 H 29 V 32.176 C 28.679,32.061 28.341,32.001 28,32 26.343,32 25,33.343 25,35 25,36.657 26.343,38 28,38 29.657,38 31,36.657 31,35 V 25 C 31,24.446 30.331,24 29.5,24 H 22.5 C 21.669,24 21,24.446 21,25"/>
</svg>
