<svg xmlns="http://www.w3.org/2000/svg" width="22" height="22" version="1.1">
 <defs>
  <style id="current-color-scheme" type="text/css">
   .ColorScheme-Text { color:#986c80; } .ColorScheme-Highlight { color:#4285f4; } .ColorScheme-NeutralText { color:#ff9800; } .ColorScheme-PositiveText { color:#4caf50; } .ColorScheme-NegativeText { color:#f44336; }
  </style>
 </defs>
 <g style="fill:currentColor" class="ColorScheme-Text">
  <path style="fill:currentColor" class="ColorScheme-Text" d="M 11 3 C 6.5822865 3 3 6.578744 3 11 C 3 15.417713 6.5787438 19 11 19 C 11.326401 19 11.646718 18.975469 11.962891 18.9375 A 5 5 0 0 1 11 16 A 5 5 0 0 1 13 12.007812 L 13 11.5 L 12 13 L 10 13 L 9 11.5 L 9 14 L 7 14 L 7 8 L 9 8 L 11 11 L 13 8 L 15 8 L 15 11.105469 A 5 5 0 0 1 16 11 A 5 5 0 0 1 18.9375 11.960938 C 18.975324 11.645309 19 11.325879 19 11 C 19 6.5822866 15.421256 3 11 3 z"/>
 </g>
 <path style="fill:currentColor" class="ColorScheme-NeutralText" d="M 15.990234 11.998047 C 15.313716 11.999368 14.627735 12.172709 14 12.535156 C 12.0868 13.639756 11.432609 16.0868 12.537109 18 C 13.641609 19.9131 16.0869 20.567491 18 19.462891 C 19.9132 18.358291 20.569344 15.9132 19.464844 14 C 18.774531 12.804312 17.560186 12.09835 16.279297 12.007812 C 16.18323 12.001022 16.08688 11.997858 15.990234 11.998047 z M 15 13 L 17 13 L 17 17 L 15 17 L 15 13 z M 15 18 L 17 18 L 17 19 L 15 19 L 15 18 z"/>
</svg>
