<svg width="22" height="22" version="1.1" xmlns="http://www.w3.org/2000/svg">
 <defs>
  <style id="current-color-scheme" type="text/css">.ColorScheme-Text { color:#986c80; } .ColorScheme-Highlight { color:#4285f4; } .ColorScheme-NeutralText { color:#ff9800; } .ColorScheme-PositiveText { color:#4caf50; } .ColorScheme-NegativeText { color:#f44336; }</style>
 </defs>
 <path class="ColorScheme-Text" d="m3 4c-1 0-1 1-1 1v11c0 1 1 1 1 1h6s-1 0-1 1v1h6v-1c0-1-1-1-1-1h6c1 0 1-1 1-1v-11s0-1-1-1zm1 2h14v9h-14z" style="fill:currentColor"/>
</svg>
