<svg xmlns="http://www.w3.org/2000/svg" width="22" height="22" version="1.1">
 <defs>
  <style id="current-color-scheme" type="text/css">
   .ColorScheme-Text { color:#986c80; } .ColorScheme-Highlight { color:#4285f4; } .ColorScheme-NeutralText { color:#ff9800; } .ColorScheme-PositiveText { color:#4caf50; } .ColorScheme-NegativeText { color:#f44336; }
  </style>
 </defs>
 <path style="fill:currentColor" class="ColorScheme-Text" d="M 9.2226562,4 C 6.8375552,4 5,5.8218119 5,8.207031 v 0.490235 c 0,1.821843 1.1289354,3.383268 2.7265625,4.019531 V 11.363281 11.123047 C 6.9863425,10.613658 6.5,9.661937 6.5,8.697266 V 8.207031 C 6.5,6.6505133 7.6661382,5.5 9.2226562,5.5 H 12.777344 C 14.333861,5.5 15.5,6.6505133 15.5,8.207031 v 0.490235 c 0,1.556517 -1.166146,2.807303 -2.722656,2.802734 H 11 10.427734 9.9609375 C 9.8453774,11.173146 9.6474621,11.000035 9.3007812,11 8.8489382,11 8.5,11.184875 8.5,11.636719 v 5.027343 C 8.5,17.037718 8.0102154,17.37908 7.6464844,17.464844 7.1235114,17.588175 6.5,17.190863 6.5,16.6875 V 14.603516 13.775391 C 6.5,13.334518 6.2416534,13 5.8007812,13 5.3600277,13 5,13.334518 5,13.775391 v 2.820312 C 5,17.9182 6.132582,19 7.4550781,19 8.7775751,19 10.007813,17.9182 10.007813,16.595703 V 14.984375 14.628906 13.892578 13.572266 13 h 1.982421 v 3.595703 C 11.990234,17.9182 13.222426,19 14.544922,19 c 0.81331,0 1.565221,-0.410531 2.017578,-1.033203 a 3,3 0 0 1 -1.515625,-0.691406 c -0.159981,0.08037 -0.349543,0.125 -0.546875,0.125 -0.669289,0 -1.015341,-0.462599 -1,-0.835938 v -2.433594 -1.164062 -0.05469 C 15.421312,12.471828 17,10.750295 17,8.697266 V 8.207031 C 17,5.8218119 15.162445,4 12.777344,4 Z M 3.75,10.001953 c -0.4126281,0 -0.75,0.359508 -0.75,0.798828 v 2.810547 c 0,1.038029 0.6281951,1.927028 1.5,2.257813 v -2.375 -1.867188 -0.826172 c 0,-0.43932 -0.3374818,-0.798828 -0.75,-0.798828 z m 14.5,0 c -0.412627,0 -0.75,0.359508 -0.75,0.798828 v 1.242188 a 3,3 0 0 1 1.5,0.720703 v -1.136719 -0.826172 c 0,-0.43932 -0.337481,-0.798828 -0.75,-0.798828 z"/>
 <circle style="fill:currentColor" class="ColorScheme-Highlight" cx="17" cy="15" r="2"/>
</svg>
