<svg xmlns="http://www.w3.org/2000/svg" width="22" height="22" version="1.1">
 <defs>
  <style id="current-color-scheme" type="text/css">
   .ColorScheme-Text { color:#986c80; } .ColorScheme-Highlight { color:#4285f4; } .ColorScheme-NeutralText { color:#ff9800; } .ColorScheme-PositiveText { color:#4caf50; } .ColorScheme-NegativeText { color:#f44336; }
  </style>
 </defs>
 <path style="fill:currentColor" class="ColorScheme-Text" d="m7 17.928a8 8 0 0 0 10.928 -2.928 8 8 0 0 0 -2.928 -10.928 8 8 0 0 0 -10.928 2.928 8 8 0 0 0 2.928 10.928zm1-1.732a6 6 0 0 1 -2.8736 -3.995 1.5 1.5 0 0 1 -0.24 -0.112 1.5 1.5 0 0 1 -0.5491 -2.049 1.5 1.5 0 0 1 0.9019 -0.695 6 6 0 0 1 0.5646 -1.345 6 6 0 0 1 2.793 -2.4898 1.5 1.5 0 0 1 0.1981 -0.6908 1.5 1.5 0 0 1 2.0491 -0.549 1.5 1.5 0 0 1 0.647 0.7572 6 6 0 0 1 2.509 0.7762 6 6 0 0 1 2.9949 5.1955 1.5 1.5 0 0 1 0.05175 0.02757 1.5 1.5 0 0 1 0.54904 2.049 1.5 1.5 0 0 1 -1.3084 0.74661 6 6 0 0 1 -0.09112 0.17742 6 6 0 0 1 -8.1962 2.1962zm0.5-0.866a5 5 0 0 0 6.83 -1.83 5 5 0 0 0 0.011 -0.019 1.5 1.5 0 0 1 -0.541 -1.191l-3.274-1.252a1.5 1.5 0 0 1 -1.892 0.328 1.5 1.5 0 0 1 -0.572 -0.592l-1.9532 0.298a1.5 1.5 0 0 1 -0.1734 0.468 1.5 1.5 0 0 1 -0.7869 0.66 5 5 0 0 0 2.3515 3.13zm-1.5419-5.247 1.9535-0.298a1.5 1.5 0 0 1 0.1734 -0.468 1.5 1.5 0 0 1 0.71 -0.6277l-0.11-1.6779a1.5 1.5 0 0 1 -0.341 -0.143 1.5 1.5 0 0 1 -0.4504 -0.3998 5 5 0 0 0 -2.2237 2.0314 5 5 0 0 0 -0.4109 0.9265 1.5 1.5 0 0 1 0.1274 0.0645 1.5 1.5 0 0 1 0.5718 0.592zm4.9226 0.02071 3.2746 1.2501a1.5 1.5 0 0 1 0.838 -0.495 5 5 0 0 0 -2.494 -4.1891 5 5 0 0 0 -1.981 -0.636 1.5 1.5 0 0 1 -0.126 0.2855 1.5 1.5 0 0 1 -0.71 0.6277l0.1093 1.6779a1.5 1.5 0 0 1 0.34143 0.143 1.5 1.5 0 0 1 0.74675 1.3355z"/>
</svg>
