<svg xmlns="http://www.w3.org/2000/svg" width="22" height="22" version="1.1">
 <defs>
  <style id="current-color-scheme" type="text/css">
   .ColorScheme-Text { color:#986c80; } .ColorScheme-Highlight { color:#4285f4; } .ColorScheme-NeutralText { color:#ff9800; } .ColorScheme-PositiveText { color:#4caf50; } .ColorScheme-NegativeText { color:#f44336; }
  </style>
 </defs>
 <path style="fill:currentColor" class="ColorScheme-Text" d="m 11.544923,3.0005154 c -0.349078,-0.00811 -0.693598,0.077695 -0.996094,0.2452403 L 4.9511726,6.3495163 C 4.7847483,6.4418035 4.6380177,6.5570839 4.5117195,6.6889288 L 11.500001,10.465629 18.490234,6.6889288 C 18.362903,6.5572767 18.215599,6.4419958 18.048828,6.3495163 L 12.451173,3.2437938 C 12.175114,3.0909097 11.863491,3.0075804 11.544923,3.0005154 Z M 4.0410163,7.5776799 c -0.024236,0.115438 -0.041023,0.232774 -0.041016,0.353146 a 1.9023174,1.8273384 0 0 0 0,0.002 v 6.2075211 c -1e-7,0.111088 0.014833,0.220543 0.035156,0.327641 a 1.9023174,1.8273384 0 0 0 0.019531,0.09417 c 0.025655,0.103745 0.059878,0.205041 0.1035156,0.302136 a 1.9023174,1.8273384 0 0 0 0.027344,0.05493 c 0.045907,0.09343 0.098509,0.182158 0.1601562,0.266822 a 1.9023174,1.8273384 0 0 0 0.027344,0.0412 c 0.067341,0.0874 0.1453277,0.168174 0.2285156,0.243278 a 1.9023174,1.8273384 0 0 0 0.066406,0.05493 c 0.088192,0.07258 0.1805318,0.141213 0.2832031,0.198154 l 5.5976562,3.10376 c 0.08936,0.04956 0.182642,0.09105 0.277344,0.125563 a 1.9023174,1.8273384 0 0 0 0.08594,0.0255 c 0.02902,0.0091 0.05875,0.01385 0.08789,0.02158 v -7.663249 z m 14.9101557,0.0039 -6.951171,3.7551181 v 7.659343 a 1.9023174,1.8273384 0 0 0 0.451172,-0.168725 l 5.597655,-3.10376 A 1.9023174,1.8273384 0 0 0 19,14.140309 V 7.9327869 A 1.9023174,1.8273384 0 0 0 18.95117,7.5816029 Z M 16,14.954503 v 0.790654 l -2.999999,1.665671 v -0.74945 z"/>
</svg>
