<svg xmlns="http://www.w3.org/2000/svg" width="22" height="22" version="1.1">
 <defs>
  <style id="current-color-scheme" type="text/css">
   .ColorScheme-Text { color:#986c80; } .ColorScheme-Highlight { color:#4285f4; } .ColorScheme-NeutralText { color:#ff9800; } .ColorScheme-PositiveText { color:#4caf50; } .ColorScheme-NegativeText { color:#f44336; }
  </style>
 </defs>
 <path style="fill:currentColor;opacity:0.35" class="ColorScheme-Text" d="M 3.8007812 5 C 3.3575812 5 3 5.3575812 3 5.8007812 L 3 16.199219 C 3 16.642419 3.3575813 17 3.8007812 17 L 7 17 L 7 17.199219 C 7 17.642419 7.3575812 18 7.8007812 18 L 14 18 C 14 17.483087 14.188592 16.978173 14.554688 16.591797 L 14.5625 16.582031 L 14.646484 16.5 L 14.572266 16.427734 C 14.182753 16.038222 14 15.518095 14 15 L 5 15 L 5 7 L 17 7 L 17 13.251953 C 17.15395 13.336733 17.297926 13.442428 17.427734 13.572266 L 17.429688 13.574219 L 17.5 13.646484 L 17.570312 13.574219 L 17.572266 13.572266 C 17.974873 13.169658 18.483087 13 19 13 L 19 5.8007812 C 19 5.3575813 18.642419 5 18.199219 5 L 3.8007812 5 z"/>
 <path style="fill:currentColor" class="ColorScheme-Text" d="m 15,14 v 1 c 0,0.28 0.1,0.54 0.28,0.72 l 0.78,0.78 -0.78,0.78 C 15.1,17.47 15,17.73 15,18 v 1 h 1 c 0.28,0 0.54,-0.1 0.72,-0.28 l 0.78,-0.78 0.78,0.78 C 18.46,18.9 18.73,19 19,19 h 1 v -1 c 0,-0.27 -0.1,-0.53 -0.28,-0.72 L 18.94,16.5 19.72,15.72 C 19.9,15.54 20,15.28 20,15 v -1 h -1 c -0.27,0 -0.54,0.1 -0.72,0.28 L 17.5,15.07 16.72,14.28 C 16.54,14.1 16.28,14 16,14 Z"/>
</svg>
