<svg xmlns="http://www.w3.org/2000/svg" width="22" height="22" version="1.1">
 <defs>
  <style id="current-color-scheme" type="text/css">
   .ColorScheme-Text { color:#986c80; } .ColorScheme-Highlight { color:#4285f4; } .ColorScheme-NeutralText { color:#ff9800; } .ColorScheme-PositiveText { color:#4caf50; } .ColorScheme-NegativeText { color:#f44336; }
  </style>
 </defs>
 <circle style="fill:currentColor" class="ColorScheme-NeutralText" cx="20" cy="18" r="2"/>
 <path style="fill:currentColor" class="ColorScheme-Text" d="m 11,3 c -4.4182999,0 -7.9999999,3.5817 -7.9999999,8 0,4.418 3.5817,8 7.9999999,8 4.418,0 8,-3.582 8,-8 0,-4.4183 -3.582,-8 -8,-8 z m 0,2 c 1.495771,0 2.989091,0.560161 4.148438,1.671875 -0.370703,0.143824 -0.713602,0.377967 -0.976563,0.75 L 13.710938,8.076172 C 12.142097,6.621879 9.6974741,6.646276 8.1718751,8.171872 7.3909654,8.952782 7.0040094,9.976415 7.0039063,10.999997 h 0.296875 a 0.69923716,0.5746971 1.1588047e-6 0 1 0.6054688,0.861328 l -0.6503906,0.925781 -0.6523438,0.925782 a 0.69923716,0.5746971 1.1588047e-6 0 1 -1.2089844,0 L 4.7441407,12.787109 4.0937501,11.861328 a 0.69923716,0.5746971 1.1588047e-6 0 1 0.3984375,-0.835937 0.69923716,0.5746971 1.1588047e-6 0 1 0.2050781,-0.02539 H 5.0019532 C 5.0020238,9.464516 5.5863638,7.929263 6.7578126,6.757814 7.9293913,5.586235 9.4644691,5.000001 11,5 Z m 4.962891,3.001953 a 0.69923716,0.5746971 1.1588047e-6 0 1 0.642578,0.285156 l 0.65039,0.925782 0.650391,0.925781 a 0.69923716,0.5746971 1.1588047e-6 0 1 -0.398438,0.835937 0.69923716,0.5746971 1.1588047e-6 0 1 -0.205078,0.02539 h -0.304687 c -7.1e-5,1.535485 -0.584412,3.070735 -1.755859,4.242188 -1.171579,1.171576 -2.706657,1.757812 -4.242188,1.757812 -1.4949089,0 -2.9874228,-0.559491 -4.1464843,-1.669922 0.363732,-0.140945 0.7082551,-0.373476 0.9746094,-0.75 v -0.002 L 8.2890626,13.92378 c 1.5688395,1.454293 4.0134634,1.429896 5.5390624,-0.0957 0.78091,-0.780866 1.167866,-1.804498 1.167969,-2.828081 H 14.699219 A 0.69923716,0.5746971 1.1588047e-6 0 1 14.09375,10.138672 l 0.650391,-0.925781 0.652343,-0.925782 a 0.69923716,0.5746971 1.1588047e-6 0 1 0.566407,-0.285156 z"/>
</svg>
