<svg xmlns="http://www.w3.org/2000/svg" width="22" height="22" version="1.1">
 <defs>
  <style id="current-color-scheme" type="text/css">
   .ColorScheme-Text { color:#986c80; } .ColorScheme-Highlight { color:#4285f4; } .ColorScheme-NeutralText { color:#ff9800; } .ColorScheme-PositiveText { color:#4caf50; } .ColorScheme-NegativeText { color:#f44336; }
  </style>
 </defs>
 <path style="fill:currentColor" class="ColorScheme-Text" d="M 3 5 L 3 8.5 C 3 9.331 3.669 10 4.5 10 L 8.5 10 C 9.331 10 10 9.331 10 8.5 L 10 5 L 3 5 z M 12 5 L 12 8.5 C 12 9.331 12.669 10 13.5 10 L 17.5 10 C 18.331 10 19 9.331 19 8.5 L 19 5 L 12 5 z M 3 14 L 3 17.5 C 3 18.331 3.669 19 4.5 19 L 8.5 19 C 9.331 19 10 18.331 10 17.5 L 10 14 L 3 14 z M 12 14 L 12 17.5 C 12 18.331 12.669 19 13.5 19 L 17.5 19 C 18.331 19 19 18.331 19 17.5 L 19 14 L 12 14 z"/>
 <path style="opacity:.35;fill:currentColor" class="ColorScheme-Text" d="M 4.5 3 C 3.669 3 3 3.669 3 4.5 L 3 5 L 10 5 L 10 4.5 C 10 3.669 9.331 3 8.5 3 L 4.5 3 z M 13.5 3 C 12.669 3 12 3.669 12 4.5 L 12 5 L 19 5 L 19 4.5 C 19 3.669 18.331 3 17.5 3 L 13.5 3 z M 4.5 12 C 3.669 12 3 12.669 3 13.5 L 3 14 L 10 14 L 10 13.5 C 10 12.669 9.331 12 8.5 12 L 4.5 12 z M 13.5 12 C 12.669 12 12 12.669 12 13.5 L 12 14 L 19 14 L 19 13.5 C 19 12.669 18.331 12 17.5 12 L 13.5 12 z"/>
</svg>
