<svg xmlns="http://www.w3.org/2000/svg" width="24" height="24" version="1.1">
 <defs>
  <style id="current-color-scheme" type="text/css">
   .ColorScheme-Text { color:#986c80; } .ColorScheme-Highlight { color:#4285f4; } .ColorScheme-NeutralText { color:#ff9800; } .ColorScheme-PositiveText { color:#4caf50; } .ColorScheme-NegativeText { color:#f44336; }
  </style>
 </defs>
 <g transform="translate(1,1)">
  <path style="fill:currentColor" class="ColorScheme-Text" d="M 17,14 A 3,1 0 0 0 14,15 V 20 A 3,1 0 0 0 17,21 3,1 0 0 0 20,20 V 15 A 3,1 0 0 0 17,14 Z M 17,15 A 3,1 0 0 1 19,15.258 V 15.744 A 3,1 0 0 1 17,16 3,1 0 0 1 15,15.742 V 15.256 A 3,1 0 0 1 17,15 Z M 15,16.744 A 3,1 0 0 0 17,17 3,1 0 0 0 19,16.744 V 17.744 A 3,1 0 0 1 17,18 3,1 0 0 1 15,17.742 Z M 5,3 C 4,3 4,4 4,4 V 18 C 4,18 4,19 5,19 H 13 V 14.564 A 5,5 0 0 1 11,15 H 6 V 10 A 5,5 0 0 1 11,5 5,5 0 0 1 16,10 5,5 0 0 1 14.98,13 H 18 V 4 C 18,4 18,3 17,3 Z M 11,7 A 3,3 0 0 0 8,10 3,3 0 0 0 11,13 3,3 0 0 0 14,10 3,3 0 0 0 11,7 Z"/>
 </g>
</svg>
