<svg xmlns="http://www.w3.org/2000/svg" width="24" height="24" version="1.1">
 <defs>
  <style id="current-color-scheme" type="text/css">
   .ColorScheme-Text { color:#986c80; } .ColorScheme-Highlight { color:#4285f4; } .ColorScheme-NeutralText { color:#ff9800; } .ColorScheme-PositiveText { color:#4caf50; } .ColorScheme-NegativeText { color:#f44336; }
  </style>
 </defs>
 <path style="fill:currentColor" class="ColorScheme-Text" d="M 4.8007812,5 C 4.3575812,5 4,5.3114187 4,5.6992188 V 19.300781 C 4,19.68858 4.3575813,20 4.8007812,20 H 17 v -2 h -4 v -1 h 1 2 1 v -1 h -1 v -1 h 1 v -1 -1 -1 -1 h 1 2 V 5.6992188 C 20,5.3114188 19.642419,5 19.199219,5 H 19 13 v 4 h 1 1 v 1 h -2 v 1 h 2 v 1 h -2 v -1 h -2 -1 v 1 H 9 6 V 11 H 8 9 V 8 H 8 6 V 7 H 9 V 5 Z M 14,7 h 4 V 8 H 16 15 14 Z M 6,9 h 2 v 1 H 6 Z m 10,0 h 2 v 1 H 17 16 Z M 6,13 h 3 v 1 H 6 Z m 7,0 h 2 1 v 1 h -2 -1 z m -7,2 h 3 v 1 H 8 7 6 Z m 4,0 h 1 v 1 h -1 z m 3,0 h 1 v 1 h -1 z m -7,2 h 1 v 1 H 6 Z m 2,0 h 1 1 1 v 1 H 8 Z"/>
 <path style="opacity:.35;fill:currentColor" class="ColorScheme-Text" d="M 9.9998,4.5 V 10 H 11 11.9998 V 4.5 C 11.9998,4.5 11.91867,4 11,4 10.081326,4 9.9998,4.5 9.9998,4.5 Z"/>
 <path style="fill:currentColor" class="ColorScheme-Highlight" d="m 18,12 v 6 h 2 v -6 z m 0,7 v 2 h 2 v -2 z"/>
</svg>
