<svg xmlns="http://www.w3.org/2000/svg" width="24" height="24" version="1.1">
 <defs>
  <style id="current-color-scheme" type="text/css">
   .ColorScheme-Text { color:#986c80; } .ColorScheme-Highlight { color:#4285f4; } .ColorScheme-NeutralText { color:#ff9800; } .ColorScheme-PositiveText { color:#4caf50; } .ColorScheme-NegativeText { color:#f44336; }
  </style>
 </defs>
 <path style="fill:currentColor" class="ColorScheme-Text" d="M 11.5,4.0002743 A 5.5,5.5 0 0 0 6.0195312,9.1272273 4,4 0 0 0 3,13.000274 a 4,4 0 0 0 4,4 H 6.7792969 c 0.07907,0.28213 0.1487537,0.567335 0.1289062,0.845703 0.01039,0.746578 -0.3997707,1.199563 -0.9023437,1.634766 -0.127824,0.06781 -0.2260149,0.147344 -0.2167969,0.175781 0.03038,0.09368 0.6159005,0.29352 0.9609375,0.328125 0.445165,0.04463 1.0652649,-0.0096 1.4199219,-0.142578 0.563869,-0.211406 1.0170285,-0.563451 1.3359375,-1.041016 0.272695,-0.408366 0.4161593,-0.813186 0.4589844,-1.285156 l 0.03125,-0.515625 H 16.5 a 3.5,3.5 0 0 0 3.5,-3.5 A 3.5,3.5 0 0 0 16.972656,10.037383 5.5,5.5 0 0 0 17,9.5002743 a 5.5,5.5 0 0 0 -5.5,-5.5 z"/>
</svg>
