<svg xmlns="http://www.w3.org/2000/svg" width="24" height="24" version="1.1">
 <defs>
  <style id="current-color-scheme" type="text/css">
   .ColorScheme-Text { color:#986c80; } .ColorScheme-Highlight { color:#4285f4; } .ColorScheme-NeutralText { color:#ff9800; } .ColorScheme-PositiveText { color:#4caf50; } .ColorScheme-NegativeText { color:#f44336; }
  </style>
 </defs>
 <path style="fill:currentColor" class="ColorScheme-Text" d="M 6.5996094,4 C 5.888499,4 5.1754203,4.1097358 4.6425781,4.642578 4.1097359,5.1754202 4,5.888499 4,6.5996094 V 12 a 1,1 0 0 0 1,1 1,1 0 0 0 1,-1 V 10 7.7792968 6.5996094 C 6,6.2388785 6.050152,6.0989062 6.0625,6.0625 6.098906,6.0501519 6.2388785,6 6.5996094,6 H 17.400391 c 0.36073,0 0.500703,0.050151 0.537109,0.0625 C 17.949849,6.098906 18,6.2388785 18,6.5996094 V 8 A 1,1 0 0 0 19,9.0000001 1,1 0 0 0 20,8 V 6.5996094 C 20,5.888499 19.890264,5.1754202 19.357422,4.6425781 18.82458,4.1097359 18.111501,4 17.400391,4 Z M 6,10 a 2,2 0 0 0 2,2 2,2 0 0 0 2,-2 2,2 0 0 0 -2,-2 2,2 0 0 0 -2,2 z m 6,-3 a 1,1 0 0 0 -1,1 v 2 1.18164 A 3,3 0 0 1 12,11 3,3 0 0 1 13,11.173828 V 11 8 A 1,1 0 0 0 12,7 Z m 4,0 A 1,1 0 0 0 15,8 V 8.1835942 A 3,3 0 0 1 16,8 3,3 0 0 1 17,8.1796872 V 8 A 1,1 0 0 0 16,7 Z m 0,2.0000001 A 2,2 0 0 0 14,11 2,2 0 0 0 16,13 2,2 0 0 0 18,11 2,2 0 0 0 16,9.0000001 Z M 19,11 a 1,1 0 0 0 -1,1 v 1.220703 4.179688 c 0,0.36073 -0.05015,0.500703 -0.0625,0.537109 C 17.90109,17.949849 17.761121,18 17.400391,18 H 6.5996094 C 6.2388785,18 6.0989062,17.949849 6.0625,17.9375 6.050152,17.901094 6,17.761121 6,17.400391 V 16 A 1,1 0 0 0 5,15 1,1 0 0 0 4,16 v 1.400391 c 0,0.71111 0.1097359,1.424189 0.6425781,1.957031 C 5.1754203,19.890264 5.888499,20 6.5996094,20 H 17.400391 c 0.71111,0 1.424189,-0.109736 1.957031,-0.642578 C 19.890264,18.82458 20,18.111501 20,17.400391 V 12 a 1,1 0 0 0 -1,-1 z m -7,1 a 2,2 0 0 0 -2,2 2,2 0 0 0 2,2 2,2 0 0 0 2,-2 2,2 0 0 0 -2,-2 z M 7,12.816406 V 16 a 1,1 0 0 0 1,1 1,1 0 0 0 1,-1 V 14 12.818359 A 3,3 0 0 1 8,13 3,3 0 0 1 7,12.816406 Z m 10,1 A 3,3 0 0 1 16,14 3,3 0 0 1 15,13.820312 V 14 16 a 1,1 0 0 0 1,1 1,1 0 0 0 1,-1 z"/>
</svg>
