<svg width="24" height="24" version="1.1" xmlns="http://www.w3.org/2000/svg">
 <defs>
  <style id="current-color-scheme" type="text/css">.ColorScheme-Text { color:#986c80; } .ColorScheme-Highlight { color:#4285f4; } .ColorScheme-NeutralText { color:#ff9800; } .ColorScheme-PositiveText { color:#4caf50; } .ColorScheme-NegativeText { color:#f44336; }</style>
 </defs>
 <path class="ColorScheme-Text" d="m 12,5 c -0.55,0 -1,0.45 -1,1 0,0.03 -2.34e-4,0.069609 0.0098,0.099609 -0.4968,0.0998 -0.959125,0.2854312 -1.390625,0.5195312 L 17,14 V 13 11 C 17,8.57 15.280034,6.5596094 12.990234,6.0996094 13.000234,6.0696094 13,6.03 13,6 13,5.45 12.55,5 12,5 Z M 6.5,5.5 5,7 7.3066406,9.3066406 C 7.1126225,9.8349112 7,10.401894 7,11 v 4.5 l -2,2 V 18 h 2 9 L 17.5,19.5 19,18 Z M 10.269531,19 c 0.36,0.62 1.020469,1 1.730469,1 0.71,0 1.370469,-0.38 1.730469,-1 z" style="fill:currentColor;opacity:.35"/>
</svg>
