<svg xmlns="http://www.w3.org/2000/svg" width="24" height="24" version="1">
 <defs>
  <style id="current-color-scheme" type="text/css">
   .ColorScheme-Text { color:#986c80; } .ColorScheme-Highlight { color:#4285f4; } .ColorScheme-NeutralText { color:#ff9800; } .ColorScheme-PositiveText { color:#4caf50; } .ColorScheme-NegativeText { color:#f44336; }
  </style>
 </defs>
 <path style="fill:currentColor" class="ColorScheme-Text" d="M 7,4 C 5.892,4 5,4.892 5,6 v 12 c 0,1.108 0.892,2 2,2 h 7 v -7 h -3 v 4 H 9 V 13 11 7 h 2 v 4 h 3 V 4 Z m 7,7 v 2 h 3 v 4 h 2 V 7 h -2 v 4 z"/>
</svg>
