<svg xmlns="http://www.w3.org/2000/svg" width="24" height="24" version="1.1">
 <defs>
  <style id="current-color-scheme" type="text/css">
   .ColorScheme-Text { color:#986c80; } .ColorScheme-Highlight { color:#4285f4; } .ColorScheme-NeutralText { color:#ff9800; } .ColorScheme-PositiveText { color:#4caf50; } .ColorScheme-NegativeText { color:#f44336; }
  </style>
 </defs>
 <path style="fill:currentColor" class="ColorScheme-Text" d="m 12,4 c -4.432,0 -8,3.568 -8,8 0,4.432 3.568,8 8,8 4.432,0 8,-3.568 8,-8 0,-4.432 -3.568,-8 -8,-8 z m 0,2 a 6,6 0 0 1 6,6 6,6 0 0 1 -6,6 6,6 0 0 1 -6,-6 6,6 0 0 1 6,-6 z m 2.5,1.9980469 -4.5,0.00391 0,4.0937501 C 9.84,12.035703 9.68,12 9.5,12 8.6716,12 8,12.6716 8,13.5 8,14.3284 8.6716,15 9.5,15 10.3284,15 11,14.3284 11,13.5 l 0,-3.5 3,0 0,2.09375 c -0.16,-0.06 -0.32,-0.0957 -0.5,-0.0957 -0.8284,0 -1.5,0.6716 -1.5,1.5 0,0.8284 0.6716,1.5 1.5,1.5 0.8284,0 1.5,-0.6716 1.5,-1.5 l 0,-5.5000001 -0.5,0 z"/>
</svg>
