<svg xmlns="http://www.w3.org/2000/svg" width="24" height="24" version="1.1">
 <defs>
  <style id="current-color-scheme" type="text/css">
   .ColorScheme-Text { color:#986c80; } .ColorScheme-Highlight { color:#4285f4; } .ColorScheme-NeutralText { color:#ff9800; } .ColorScheme-PositiveText { color:#4caf50; } .ColorScheme-NegativeText { color:#f44336; }
  </style>
 </defs>
 <path style="fill:currentColor;opacity:0.35" class="ColorScheme-Text" d="M 10.222656,5 C 7.8375552,5 6,6.8218119 6,9.207031 v 0.490235 c 0,1.821843 1.1289354,3.383268 2.7265625,4.019531 V 12.363281 12.123047 C 7.9863425,11.613658 7.5,10.661937 7.5,9.697266 V 9.207031 C 7.5,7.6505133 8.6661382,6.5 10.222656,6.5 h 3.554688 C 15.333861,6.5 16.5,7.6505133 16.5,9.207031 v 0.490235 c 0,1.556517 -1.166146,2.807303 -2.722656,2.802734 H 12 11.427734 10.960938 C 10.845377,12.173146 10.647462,12.000035 10.300781,12 9.8489382,12 9.5,12.184876 9.5,12.636719 v 5.027343 C 9.5,18.037717 9.0102154,18.37908 8.6464844,18.464844 8.1235114,18.588175 7.5,18.190863 7.5,17.6875 V 15.603516 14.775391 C 7.5,14.334518 7.2416534,14 6.8007812,14 6.3600277,14 6,14.334518 6,14.775391 v 2.820312 C 6,18.9182 7.132582,20 8.4550781,20 9.7775751,20 11.007813,18.9182 11.007813,17.595703 V 15.984375 15.628906 14.892578 14.572266 14 h 1.982421 v 3.595703 C 12.990234,18.9182 14.222426,20 15.544922,20 16.867418,20 18.033271,18.917781 18,17.595703 V 15.603516 14.775391 C 18,14.334518 17.722121,14 17.28125,14 16.840497,14 16.5,14.334518 16.5,14.775391 v 2.8125 c 0,0.503363 -0.472039,0.8125 -1,0.8125 -0.669289,0 -1.015341,-0.462599 -1,-0.835938 v -2.433594 -1.164062 -0.05469 C 16.421312,13.471828 18,11.750295 18,9.697266 V 9.207031 C 18,6.8218119 16.162445,5 13.777344,5 Z M 4.75,11.001953 c -0.4126281,0 -0.75,0.359508 -0.75,0.798828 v 2.810547 c 0,1.038029 0.6281951,1.927028 1.5,2.257813 v -2.375 -1.867188 -0.826172 c 0,-0.43932 -0.3374818,-0.798828 -0.75,-0.798828 z m 14.5,0 c -0.412627,0 -0.75,0.359508 -0.75,0.798828 v 5.06836 C 19.371806,16.538356 20,15.649357 20,14.611328 v -1.984375 -0.826172 c 0,-0.43932 -0.337481,-0.798828 -0.75,-0.798828 z"/>
</svg>
