<svg xmlns="http://www.w3.org/2000/svg" width="24" height="24" version="1.1">
 <defs>
  <style id="current-color-scheme" type="text/css">
   .ColorScheme-Text { color:#986c80; } .ColorScheme-Highlight { color:#4285f4; } .ColorScheme-NeutralText { color:#ff9800; } .ColorScheme-PositiveText { color:#4caf50; } .ColorScheme-NegativeText { color:#f44336; }
  </style>
 </defs>
 <g transform="translate(-544,402.01)">
  <path style="fill:currentColor" class="ColorScheme-NeutralText" d="m 4,3 0,8.604 c -2e-4,4.947 7,7.396 7,7.396 0,0 7,-2.449 7,-7.396 L 18,3 4,3 Z m 2,2 5,0 0,5 5,0 0,2.199 C 16,15.812 11,17 11,17 l 0,-7 -5,0 0,-5 z" transform="translate(545,-401.01)"/>
 </g>
</svg>
