<svg xmlns="http://www.w3.org/2000/svg" width="24" height="24" version="1.1">
 <defs>
  <style id="current-color-scheme" type="text/css">
   .ColorScheme-Text { color:#986c80; } .ColorScheme-Highlight { color:#4285f4; } .ColorScheme-NeutralText { color:#ff9800; } .ColorScheme-PositiveText { color:#4caf50; } .ColorScheme-NegativeText { color:#f44336; }
  </style>
 </defs>
 <path style="fill:currentColor" class="ColorScheme-Text" d="M 12.851684,4.000219 C 12.291788,3.988499 11.728638,4.1506104 11.259888,4.4592034 10.79244,4.7664954 10.419392,5.216365 10.207153,5.734594 9.9949094,6.254125 9.9441332,6.8368066 10.062622,7.3849846 c 0.11849,0.546875 0.404948,1.0572913 0.8125,1.4414063 -0.207031,-0.341146 -0.313801,-0.7447923 -0.300781,-1.1445313 0.01172,-0.39974 0.143229,-0.795573 0.371094,-1.125 0.227865,-0.328125 0.552083,-0.5872392 0.921875,-0.7382812 1.223013,-0.417538 2.155362,0.1035003 2.570312,1.1816406 h 5.414062 l -4.5,-1.3339844 C 15.138142,5.1818596 14.782674,4.761938 14.343872,4.468969 13.903767,4.176 13.38033,4.010639 12.851684,4.000219 Z m -7.8515618,1 c -0.6406251,0.6698897 -1.007812,1.5989423 -1,2.53125 0.0078,0.9454947 0.4023434,1.882309 1.0703125,2.542969 0.103606,0.102472 0.2244488,0.183053 0.3398437,0.271484 l -0.9101562,-0.28125 c -0.173177,0.66989 -0.1197915,1.396279 0.1484375,2.033203 0.269532,0.635604 0.7526045,1.174822 1.3515625,1.509766 0.457031,0.255824 0.9778648,0.392578 1.5,0.392578 0.522135,0 1.042969,-0.136754 1.5,-0.392578 -0.420573,0.03824 -0.8496091,-0.0317 -1.2363281,-0.203125 C 7.3770761,13.234407 7.0333248,12.962801 6.7755128,12.625219 6.4786378,12.234889 6.2956947,11.756393 6.2579347,11.265844 L 11.000122,12.090063 6.6817628,10.74436 C 6.5251908,10.642626 6.3776932,10.528086 6.2501222,10.390844 5.8946532,10.009745 5.6732987,9.502886 5.6329347,8.9806878 5.5951747,8.4743142 5.7266852,7.9560846 6.0001222,7.531469 l 5.4999998,3.039063 z m 9.0039058,3.171875 c -0.277736,0.3283508 -0.459175,0.7364217 -0.517578,1.162109 -0.05451,0.402328 -0.0029,0.813134 0.103516,1.205079 0.106422,0.390647 0.266136,0.767505 0.421875,1.142578 0.15574,0.375072 0.310879,0.751289 0.412109,1.144531 0.09993,0.393242 0.145598,0.807299 0.07813,1.207031 -0.112911,0.66968 -0.540887,1.266246 -1.097656,1.654297 -0.556769,0.388051 -1.234642,0.57892 -1.912109,0.623047 -0.855274,0.05581 -1.7238782,-0.117783 -2.4921928,-0.498047 L 9.0196532,19.801 10.015747,17.816625 c 1.317298,0.385455 2.791618,0.196909 3.96875,-0.507812 0.594405,-0.355606 1.115124,-0.840473 1.478516,-1.429688 0.36469,-0.589214 0.565648,-1.284163 0.533203,-1.974609 -0.04672,-0.985052 -0.5491,-1.881727 -1.029297,-2.742188 -0.481495,-0.860461 -0.964214,-1.773416 -0.970703,-2.7597652 0,-0.076569 0.0026,-0.1538967 0.0078,-0.2304688 z"/>
</svg>
