<svg xmlns="http://www.w3.org/2000/svg" width="24" height="24" version="1.1">
 <defs>
  <style id="current-color-scheme" type="text/css">
   .ColorScheme-Text { color:#986c80; } .ColorScheme-Highlight { color:#4285f4; } .ColorScheme-NeutralText { color:#ff9800; } .ColorScheme-PositiveText { color:#4caf50; } .ColorScheme-NegativeText { color:#f44336; }
  </style>
 </defs>
 <path style="fill:currentColor;fill-rule:evenodd" class="ColorScheme-Text" d="M 12.5,4 C 10.007,4 8,6.040203 8,8.5332031 V 11 H 7.7851562 C 7.3497123,11 7,11.365187 7,11.818359 v 7.363282 C 7,19.634813 7.3497122,20 7.7851562,20 H 17.214844 C 17.650288,20 18,19.634813 18,19.181641 V 11.818359 C 18,11.365187 17.650288,11 17.214844,11 H 17 V 8.5332031 C 17,6.040203 14.993,4 12.5,4 Z m 0,2 c 1.838963,0 2.280276,1.1465511 2.5,2.9335938 V 11 H 10 V 8.9335938 C 10,7.1330939 10.661038,6 12.5,6 Z m 0,6 C 14.432997,12 16,13.567004 16,15.5 16,17.432997 14.432997,19 12.5,19 10.567003,19 9,17.432997 9,15.5 9,13.567004 10.567003,12 12.5,12 Z m 0.386719,0.291016 a 0.09723195,0.09723195 0 0 0 -0.08594,0.09766 v 0.777343 a 0.09723195,0.09723195 0 1 0 0.193359,0 v -0.777343 a 0.09723195,0.09723195 0 0 0 -0.107421,-0.09766 z M 14.798828,14.25 a 0.29169585,0.29169585 0 0 0 -0.128906,0.04102 l -2.210938,1.27539 -1.65039,-0.953125 a 0.29228632,0.29228632 0 0 0 -0.292969,0.50586 l 1.798828,1.037109 a 0.29169585,0.29169585 0 0 0 0.291016,0 l 2.355469,-1.359379 A 0.29169585,0.29169585 0 0 0 14.798828,14.25 Z M 9.3691406,15.804688 A 0.09814307,0.09814307 0 0 0 9.3886719,16 h 0.7773441 a 0.097656,0.097656 0 1 0 0,-0.195312 H 9.3886719 a 0.097656,0.097656 0 0 0 -0.00977,0 0.097778,0.097778 0 0 0 -0.00977,0 z m 5.4453124,0 A 0.09814306,0.09814306 0 0 0 14.833984,16 h 0.777344 a 0.097656,0.097656 0 1 0 0,-0.195312 h -0.777344 a 0.097656,0.097656 0 0 0 -0.0098,0 0.09777798,0.09777798 0 0 0 -0.0098,0 z m -1.927734,1.929687 a 0.09723195,0.09723195 0 0 0 -0.08594,0.09961 v 0.777344 a 0.09723195,0.09723195 0 1 0 0.193359,0 v -0.777344 a 0.09723195,0.09723195 0 0 0 -0.09766,-0.09961 0.09723195,0.09723195 0 0 0 -0.0098,0 z"/>
 <path style="opacity:.35;fill:currentColor" class="ColorScheme-Text" d="m 11.085938,13.251953 a 0.29169585,0.29169585 0 0 0 -0.238282,0.441406 l 1.359375,2.357422 a 0.29228632,0.29228632 0 1 0 0.50586,-0.292969 l -1.361328,-2.355468 a 0.29169585,0.29169585 0 0 0 -0.265625,-0.150391 z"/>
 <path style="opacity:0.5;fill:currentColor" class="ColorScheme-Text" d="m 12.455078,12.886719 a 0.29169585,0.29169585 0 0 0 -0.287109,0.296875 v 0.115234 2.605469 a 0.29199215,0.29199215 0 1 0 0.583984,0 v -2.605469 -0.115234 a 0.29169585,0.29169585 0 0 0 -0.296875,-0.296875 z"/>
 <path style="opacity:0.7;fill:currentColor" class="ColorScheme-Text" d="m 13.824219,13.251953 a 0.29169585,0.29169585 0 0 0 -0.257813,0.150391 l -1.359375,2.355468 a 0.29228632,0.29228632 0 1 0 0.50586,0.292969 l 1.359375,-2.357422 a 0.29169585,0.29169585 0 0 0 -0.248047,-0.441406 z"/>
</svg>
