<svg xmlns="http://www.w3.org/2000/svg" width="22" height="22" version="1.1">
 <defs>
  <style id="current-color-scheme" type="text/css">
   .ColorScheme-Text { color:#a47056; } .ColorScheme-Highlight { color:#4285f4; } .ColorScheme-NeutralText { color:#ff9800; } .ColorScheme-PositiveText { color:#4caf50; } .ColorScheme-NegativeText { color:#f44336; }
  </style>
 </defs>
 <path style="fill:currentColor" class="ColorScheme-Text" d="M 4,12 V 13 17 H 5 V 13 H 9 V 12 Z M 5,12 C 5,15 8.5,18 12,18 V 17 C 9.5,17 6,14 6,12 Z M 19,10 V 9 5 H 18 V 9 H 14 V 10 Z M 18,10 C 18,7 14.5,4 11,4 V 5 C 13.5,5 17,8 17,10 Z M 8,4 C 6,4 6,6 6,6 V 9 H 7 V 6 C 7,6 7,5 8,5 9,5 9,6 9,6 H 10 C 10,6 10,4 8,4 Z M 8,7 A 2,2 0 0 0 6,9 2,2 0 0 0 8,11 2,2 0 0 0 10,9 2,2 0 0 0 8,7 Z M 8,8 A 1,1 0 0 1 9,9 1,1 0 0 1 8,10 1,1 0 0 1 7,9 1,1 0 0 1 8,8 Z M 3,4 V 5 H 4 V 11 H 5 V 4 Z M 17,14 A 2,2 0 0 0 15,16 2,2 0 0 0 17,18 2,2 0 0 0 19,16 2,2 0 0 0 17,14 Z M 17,15 A 1,1 0 0 1 18,16 1,1 0 0 1 17,17 1,1 0 0 1 16,16 1,1 0 0 1 17,15 Z M 17,11 A 2,2 0 0 0 15,13 2,2 0 0 0 17,15 2,2 0 0 0 19,13 2,2 0 0 0 17,11 Z M 17,12 A 1,1 0 0 1 18,13 1,1 0 0 1 17,14 1,1 0 0 1 16,13 1,1 0 0 1 17,12 Z"/>
</svg>
