<svg xmlns="http://www.w3.org/2000/svg" width="22" height="22" version="1.1">
 <defs>
  <style id="current-color-scheme" type="text/css">
   .ColorScheme-Text { color:#a47056; } .ColorScheme-Highlight { color:#4285f4; } .ColorScheme-NeutralText { color:#ff9800; } .ColorScheme-PositiveText { color:#4caf50; } .ColorScheme-NegativeText { color:#f44336; }
  </style>
 </defs>
 <path style="fill:currentColor" class="ColorScheme-Text" d="m 17,18 c 0.55,0 1,-0.45 1,-1 V 6 L 16,4 H 5 C 4.45,4 4,4.45 4,5 v 12 c 0,0.55 0.45,1 1,1 z M 16,16 H 6 V 6 h 1 v 5 h 8 V 6 h 1 z M 11,10 H 9 V 6 h 2 z"/>
</svg>
