<svg xmlns="http://www.w3.org/2000/svg" width="22" height="22" version="1.1">
 <defs>
  <style id="current-color-scheme" type="text/css">
   .ColorScheme-Text { color:#a47056; } .ColorScheme-Highlight { color:#4285f4; } .ColorScheme-NeutralText { color:#ff9800; } .ColorScheme-PositiveText { color:#4caf50; } .ColorScheme-NegativeText { color:#f44336; }
  </style>
 </defs>
 <g transform="translate(3,3)">
  <path style="fill:currentColor" class="ColorScheme-Text" d="M 13.5,8 C 13.5,8 12,8 12,9.5 V 11 H 11 V 14 H 16 V 11 H 15 V 9.5 C 15,8 13.5,8 13.5,8 Z M 13.5,9 C 13.5,9 14,9 14,9.5 V 11 H 13 V 9.5 C 13,9 13.5,9 13.5,9 Z M 2,2 C 0,2 0,4 0,4 V 12 C 0,12 0,14 2,14 H 10 V 11 C 10,10 11,10 11,10 V 9 C 11,7 13.5,7 13.5,7 13.5,7 16,7 16,9 V 4 C 16,4 16,2 14,2 Z M 2,4 8,7 14,4 V 6 L 8,9 2,6 Z"/>
 </g>
</svg>
