<svg xmlns="http://www.w3.org/2000/svg" width="22" height="22" version="1.1">
 <defs>
  <style id="current-color-scheme" type="text/css">
   .ColorScheme-Text { color:#a47056; } .ColorScheme-Highlight { color:#4285f4; } .ColorScheme-NeutralText { color:#ff9800; } .ColorScheme-PositiveText { color:#4caf50; } .ColorScheme-NegativeText { color:#f44336; }
  </style>
 </defs>
 <g transform="translate(3,3)">
  <path style="fill:currentColor" class="ColorScheme-Text" d="M 6,10 C 0,10 0,14 0,14 V 15 H 9 V 10.451 C 8.2182,10.178 7.2444,10 6,10 Z M 11.5,4 A 2.5,2.5 0 0 0 9.9668,4.5254 4,4 0 0 1 10,5 4,4 0 0 1 9.1758,7.4219 2.5,2.5 0 0 0 11.5,9 2.5,2.5 0 0 0 14,6.5 2.5,2.5 0 0 0 11.5,4 Z M 9,5 A 3,3 0 0 1 6,8 3,3 0 0 1 3,5 3,3 0 0 1 6,2 3,3 0 0 1 9,5 Z M 12,10 V 12 H 10 V 14 H 12 V 16 H 14 V 14 H 16 V 12 H 14 V 10 Z"/>
 </g>
</svg>
