<svg xmlns="http://www.w3.org/2000/svg" width="22" height="22" version="1.1">
 <defs>
  <style id="current-color-scheme" type="text/css">
   .ColorScheme-Text { color:#a47056; } .ColorScheme-Highlight { color:#4285f4; } .ColorScheme-NeutralText { color:#ff9800; } .ColorScheme-PositiveText { color:#4caf50; } .ColorScheme-NegativeText { color:#f44336; }
  </style>
 </defs>
 <path style="fill:currentColor" class="ColorScheme-Text" d="M 15.585938,4 4,15.585938 V 17 h 1.4140625 l 2,-2 H 18 c 1,0 1,-1 1,-1 V 7 C 19,6 18,6 18,6 H 17 16.414062 L 17,5.4140625 V 4 Z M 4,6 C 3,6 3,7 3,7 v 7 c 0,1 1,1 1,1 L 6,13 H 5 V 8 H 8 V 9 H 6 v 1 h 2 v 1 L 9,10 V 9 8 h 1 v 1 l 2,-2 1,-1 z m 4,5 H 6 v 2 z M 14.414062,8 H 17 v 1 h -2 v 1 h 2 v 1 h -2 v 1 h 2 v 1 H 14 V 9 8.414063 Z M 12,10.414063 V 12 h 1 v 1 h -1 -1 v -1 -0.585937 z"/>
</svg>
