<svg xmlns="http://www.w3.org/2000/svg" width="22" height="22" viewBox="0 0 22 22">
 <defs>
  <style id="current-color-scheme" type="text/css">
   .ColorScheme-Text { color:#a47056; } .ColorScheme-Highlight { color:#4285f4; } .ColorScheme-NeutralText { color:#ff9800; } .ColorScheme-PositiveText { color:#4caf50; } .ColorScheme-NegativeText { color:#f44336; }
  </style>
 </defs>
 <path style="fill:currentColor" class="ColorScheme-Text" d="M 1 2 L 1 6 L 2 6 L 2 5 L 3 5 L 3 6 L 4 6 L 4 2 L 1 2 z M 2 3 L 3 3 L 3 4 L 2 4 L 2 3 z M 8 3 L 8 7 L 4.9375 7 L 10 14 L 15.1875 7 L 12 7 L 12 3 L 8 3 z M 1 9 L 1 13 L 4 13 L 4 12 L 2 12 L 2 10 L 4 10 L 4 9 L 1 9 z" transform="translate(3 3)"/>
</svg>
