<svg xmlns="http://www.w3.org/2000/svg" width="22" height="22" version="1.1">
 <defs>
  <style id="current-color-scheme" type="text/css">
   .ColorScheme-Text { color:#a47056; } .ColorScheme-Highlight { color:#4285f4; } .ColorScheme-NeutralText { color:#ff9800; } .ColorScheme-PositiveText { color:#4caf50; } .ColorScheme-NegativeText { color:#f44336; }
  </style>
 </defs>
 <g transform="translate(3,3)">
  <path style="fill:currentColor" class="ColorScheme-Text" d="M 1.375,1 C 1.16725,1 1,1.16725 1,1.375 V 3.625 C 1,3.83275 1.16725,4 1.375,4 H 3.625 C 3.83275,4 4,3.83275 4,3.625 V 1.375 C 4,1.16725 3.83275,1 3.625,1 Z M 5,2 V 4 H 15 V 2 Z M 1.375,5 C 1.16725,5 1,5.16725 1,5.375 V 7.625 C 1,7.83275 1.16725,8 1.375,8 H 3.625 C 3.83275,8 4,7.83275 4,7.625 V 5.375 C 4,5.16725 3.83275,5 3.625,5 Z M 5,6 V 8 H 15 V 6 Z M 1.375,9 C 1.16725,9 1,9.16725 1,9.375 V 11.625 C 1,11.83275 1.16725,12 1.375,12 H 3.625 C 3.83275,12 4,11.83275 4,11.625 V 9.375 C 4,9.16725 3.83275,9 3.625,9 Z M 5,10 V 12 H 10 V 10 Z M 13,11 V 13 H 11 V 14 H 13 V 16 H 14 V 14 H 16 V 13 H 14 V 11 Z M 1.375,13 C 1.16725,13 1,13.16725 1,13.375 V 15.625 C 1,15.83275 1.16725,16 1.375,16 H 3.625 C 3.83275,16 4,15.83275 4,15.625 V 13.375 C 4,13.16725 3.83275,13 3.625,13 Z M 5,14 V 16 H 10 V 14 Z"/>
 </g>
</svg>
