<svg xmlns="http://www.w3.org/2000/svg" width="22" height="22" version="1.1">
 <defs>
  <style id="current-color-scheme" type="text/css">
   .ColorScheme-Text { color:#a47056; } .ColorScheme-Highlight { color:#4285f4; } .ColorScheme-NeutralText { color:#ff9800; } .ColorScheme-PositiveText { color:#4caf50; } .ColorScheme-NegativeText { color:#f44336; }
  </style>
 </defs>
 <path style="fill:currentColor" class="ColorScheme-NegativeText" d="M 18.5,15 C 16.567003,15 15,16.567003 15,18.5 15,20.432997 16.567003,22 18.5,22 20.432997,22 22,20.432997 22,18.5 22,16.567003 20.432997,15 18.5,15 Z M 16,18 h 5 v 1 h -5 z"/>
</svg>
