<svg xmlns="http://www.w3.org/2000/svg" width="16" height="16" version="1.1">
 <defs>
  <style id="current-color-scheme" type="text/css">
   .ColorScheme-Text { color:#a47056; } .ColorScheme-Highlight { color:#4285f4; } .ColorScheme-NeutralText { color:#ff9800; } .ColorScheme-PositiveText { color:#4caf50; } .ColorScheme-NegativeText { color:#f44336; }
  </style>
 </defs>
 <path style="fill:currentColor" class="ColorScheme-Text" d="M 2,2 C 1,2 1,3 1,3 V 13 C 1,14 2,14 2,14 H 14 C 14,14 15,14 15,13 V 3 C 15,2 14,2 14,2 Z M 9,10 11,7.56 13,10 V 12 H 3 V 9 L 5.5,6.5 Z"/>
</svg>
