<svg xmlns="http://www.w3.org/2000/svg" width="16" height="16" version="1.1">
 <defs>
  <style id="current-color-scheme" type="text/css">
   .ColorScheme-Text { color:#a47056; } .ColorScheme-Highlight { color:#4285f4; } .ColorScheme-NeutralText { color:#ff9800; } .ColorScheme-PositiveText { color:#4caf50; } .ColorScheme-NegativeText { color:#f44336; }
  </style>
 </defs>
 <path style="fill:currentColor" class="ColorScheme-Text" d="M 7,8 A 2,2 0 0 1 5,10 2,2 0 0 1 3,8 2,2 0 0 1 5,6 2,2 0 0 1 7,8 Z M 12,5.5 V 10.5 L 7.5,8 Z M 12,13 V 11 H 14 V 5 H 12 V 3 H 16 V 13 Z M 4,13 V 11 H 2 V 5 H 4 V 3 H 0 V 13 Z"/>
</svg>
