<svg xmlns="http://www.w3.org/2000/svg" width="16" height="16" version="1.1">
 <defs>
  <style id="current-color-scheme" type="text/css">
   .ColorScheme-Text { color:#986c80; } .ColorScheme-Highlight { color:#4285f4; } .ColorScheme-NeutralText { color:#ff9800; } .ColorScheme-PositiveText { color:#4caf50; } .ColorScheme-NegativeText { color:#f44336; }
  </style>
 </defs>
 <path style="fill:currentColor" class="ColorScheme-Text" d="M 6.5655176,0.09923576 A 1.0001,1.0001 0 0 0 5.9991114,0.99962646 V 5.0660327 L 3.6123927,3.2105639 A 1,1 0 0 0 2.2100489,3.3863452 1,1 0 0 0 2.3858302,4.788689 L 5.9991114,7.5992359 V 8.4000171 L 2.3858302,11.210564 a 1,1 0 0 0 -0.1757813,1.402343 1,1 0 0 0 1.4023438,0.175782 L 5.9991114,10.93322 v 4.066407 a 1.0001,1.0001 0 0 0 1.625,0.78125 l 5.0000006,-4.000001 a 1.0001,1.0001 0 0 0 -0.01172,-1.570312 L 9.7705959,7.9996265 12.612393,5.788689 a 1.0001,1.0001 0 0 0 0.01172,-1.5703125 L 7.6241124,0.21837646 A 1.0001,1.0001 0 0 0 6.5655176,0.09923576 Z M 7.9991114,3.0816577 10.383878,4.9898609 8.1416895,6.7340015 7.9991114,6.6226734 Z M 8.1416895,9.2652515 10.383878,11.009392 7.9991114,12.917596 V 9.3765796 Z"/>
</svg>
