<svg width="16" height="16" version="1.1" xmlns="http://www.w3.org/2000/svg">
 <defs>
  <style id="current-color-scheme" type="text/css">.ColorScheme-Text { color:#986c80; } .ColorScheme-Highlight { color:#4285f4; } .ColorScheme-NeutralText { color:#ff9800; } .ColorScheme-PositiveText { color:#4caf50; } .ColorScheme-NegativeText { color:#f44336; }</style>
 </defs>
 <path class="ColorScheme-Text" d="m8 0.721-2.1893 2.2793h-2.8105v2.8105l-2.2793 2.1892 2.2793 2.221v2.779h2.8105l2.1893 2.279 2.221-2.279h2.779v-2.779l2.279-2.221-2.279-1.9997v-3h-2.779zm0 3.2793c2.21 0 4 1.79 4 3.9997 0 2.21-1.79 4-4 4-2.2098 0-3.9998-1.79-3.9998-4 0-2.2097 1.79-3.9997 3.9998-3.9997z" style="fill:currentColor;opacity:.35"/>
 <path class="ColorScheme-Text" d="m5 8c0-1.6581621 1.3353895-3 3-3v6c-1.6646105 0-3-1.3418379-3-3z" style="fill:currentColor"/>
</svg>
