<svg xmlns="http://www.w3.org/2000/svg" width="16" height="16" version="1.1">
 <defs>
  <style id="current-color-scheme" type="text/css">
   .ColorScheme-Text { color:#986c80; } .ColorScheme-Highlight { color:#4285f4; } .ColorScheme-NeutralText { color:#ff9800; } .ColorScheme-PositiveText { color:#4caf50; } .ColorScheme-NegativeText { color:#f44336; }
  </style>
 </defs>
 <path style="fill:currentColor" class="ColorScheme-Highlight" d="M 9 0 C 4.5817222 0 1 3.5817222 1 8 C 1 12.418278 4.5817222 16 9 16 C 10.377898 15.9985 11.732439 15.641508 12.931641 14.962891 L 11.363281 13.505859 A 6 6 0 0 1 9 14 A 6 6 0 0 1 3 8 A 6 6 0 0 1 9 2 A 6 6 0 0 1 11.457031 2.5273438 L 12.935547 1.046875 C 11.735699 0.36411806 10.3805 0.00346971 9 0 z M 14.144531 1.8378906 L 10.167969 5.8164062 L 11.228516 6.8769531 L 15.205078 2.8984375 L 14.144531 1.8378906 z M 9 7 A 1 1 0 0 0 8 8 A 1 1 0 0 0 9 9 A 1 1 0 0 0 10 8 A 1 1 0 0 0 9 7 z M 11.228516 9.1230469 L 10.167969 10.183594 L 14.144531 14.162109 L 15.205078 13.101562 L 11.228516 9.1230469 z"/>
</svg>
