<svg xmlns="http://www.w3.org/2000/svg" width="16" height="16" version="1.1">
 <defs>
  <style id="current-color-scheme" type="text/css">
   .ColorScheme-Text { color:#986c80; } .ColorScheme-Highlight { color:#4285f4; } .ColorScheme-NeutralText { color:#ff9800; } .ColorScheme-PositiveText { color:#4caf50; } .ColorScheme-NegativeText { color:#f44336; }
  </style>
 </defs>
 <path style="fill:none;stroke:currentColor;stroke-width:2;stroke-linecap:round;stroke-linejoin:round" class="ColorScheme-Text" d="M 6.9995852,12 V 3.9999997 m -5.9999998,0 L 3.9995853,7.999998 6.9995852,3.9999997 M 0.9995854,12 V 3.9999997"/>
 <path style="fill:none;stroke:currentColor;stroke-width:2;stroke-linecap:round;stroke-linejoin:round" class="ColorScheme-Text" d="M 11,4.0000001 V 12 h 3.999998 v 0"/>
</svg>
