<svg xmlns="http://www.w3.org/2000/svg" width="16" height="16" version="1.1">
 <defs>
  <style id="current-color-scheme" type="text/css">
   .ColorScheme-Text { color:#986c80; } .ColorScheme-Highlight { color:#4285f4; } .ColorScheme-NeutralText { color:#ff9800; } .ColorScheme-PositiveText { color:#4caf50; } .ColorScheme-NegativeText { color:#f44336; }
  </style>
 </defs>
 <path style="fill:currentColor" class="ColorScheme-Text" d="M 14 0 C 9.0953375 0 4.9292534 3.2299795 3.515625 7.6738281 C 4.2506055 7.2499578 5.0813598 7.0200889 5.9296875 7.0058594 C 7.3978179 4.0364771 10.454086 2 14 2 L 14 0 z M 14 4 C 11.453869 4 9.217322 5.372955 7.9921875 7.4160156 C 8.6093483 7.6841503 9.1660375 8.0740984 9.6289062 8.5625 C 10.480744 7.0306675 12.11354 6 14 6 L 14 4 z M 5.9902344 8 C 5.313745 8.001344 4.627662 8.1747483 4 8.5371094 C 2.087024 9.6414494 1.4327394 12.087251 2.5371094 14 C 3.6414804 15.912649 6.087124 16.567231 8 15.462891 C 9.912976 14.358552 10.567262 11.914703 9.4628906 10.001953 C 8.7726586 8.8065472 7.5600359 8.1002816 6.2792969 8.0097656 C 6.1832416 8.0029769 6.0868757 7.999808 5.9902344 8 z M 12.5 8 C 11.671573 8 11 8.6715729 11 9.5 C 11 10.328427 11.671573 11 12.5 11 C 13.328427 11 14 10.328427 14 9.5 C 14 8.6715729 13.328427 8 12.5 8 z M 7.9863281 10.177734 L 8.7519531 10.822266 L 6.0625 14.023438 L 4.0117188 12.314453 L 4.6523438 11.546875 L 5.9375 12.617188 L 7.9863281 10.177734 z M 11 12 L 11 16 L 14 16 L 14 12 L 11 12 z"/>
</svg>
