<svg xmlns="http://www.w3.org/2000/svg" width="16" height="16" version="1.1">
 <defs>
  <style id="current-color-scheme" type="text/css">
   .ColorScheme-Text { color:#986c80; } .ColorScheme-Highlight { color:#4285f4; } .ColorScheme-NeutralText { color:#ff9800; } .ColorScheme-PositiveText { color:#4caf50; } .ColorScheme-NegativeText { color:#f44336; }
  </style>
 </defs>
 <path style="fill:currentColor" class="ColorScheme-Text" d="M 7.3300781 0.009765625 C 3.2581501 0.10224122 0.00392184 3.4270243 0 7.5 C -8.9999998e-08 11.642136 3.3578644 15 7.5 15 C 11.642136 15 15 11.642136 15 7.5 C 14.9924 5.048298 13.786643 2.7558107 11.771484 1.359375 L 11.583984 2.8164062 A 5.5 5.5 0 0 1 13 6.5 A 5.5 5.5 0 0 1 7.5 12 A 5.5 5.5 0 0 1 2 6.5 A 5.5 5.5 0 0 1 5.7050781 1.3144531 A 5.5 5.5 0 0 1 6.0136719 1.2089844 C 6.2250185 1.1426971 6.4418081 1.0865838 6.6640625 1.0449219 C 6.935315 0.72064004 7.0416344 0.35569215 7.1757812 0.19140625 C 7.2292093 0.12596965 7.2784659 0.070715425 7.3300781 0.009765625 z M 9.6777344 1 C 9.6630584 1.00168 9.651053 1.0067818 9.640625 1.0117188 C 9.6036781 1.029242 9.4266825 1.2374835 9.2460938 1.4746094 C 8.132233 2.8267358 6.7675169 4.0016479 6.0644531 5.4257812 C 5.9842461 5.7249431 5.9771867 6.2076285 6.0488281 6.4882812 C 6.2452575 7.2576614 6.903212 7.8342575 7.75 7.9824219 C 7.788487 7.9891719 7.9217694 7.998182 8.0449219 8 C 8.5580239 8.00797 8.99534 7.820566 9.3652344 7.4355469 C 9.5601852 7.2326241 9.6145425 7.1537781 9.734375 6.8945312 C 9.8115884 6.7274968 9.895543 6.5045451 9.921875 6.4003906 C 9.9894316 6.1332435 10.021456 6.0833798 9.9863281 4.8203125 L 9.9863281 1.1386719 C 9.9702436 1.0516766 9.780487 0.98824083 9.6777344 1 z"/>
 <circle style="fill:currentColor" class="ColorScheme-Highlight" cx="14.5" cy="14.5" r="1.5"/>
</svg>
