<svg xmlns="http://www.w3.org/2000/svg" width="16" height="16" version="1.1">
 <defs>
  <style id="current-color-scheme" type="text/css">
   .ColorScheme-Text { color:#986c80; } .ColorScheme-Highlight { color:#4285f4; } .ColorScheme-NeutralText { color:#ff9800; } .ColorScheme-PositiveText { color:#4caf50; } .ColorScheme-NegativeText { color:#f44336; }
  </style>
 </defs>
 <path style="fill:currentColor" class="ColorScheme-Text" d="M 8.9998433,0.019687 V 3.0001557 H 11.999843 V 0.8673432 A 7.5,7.5 0 0 0 8.9998433,0.019687 Z M 7.9998438,0.035312 a 7.5,7.5 0 0 0 -3,0.8535156 v 2.1113281 h 3 z M 12.999843,1.5021088 V 3.0001557 H 14.49789 A 7.5,7.5 0 0 0 12.999843,1.5021088 Z M 3.9998438,1.5235932 A 7.5,7.5 0 0 0 2.5232813,3.0001557 H 3.9998438 Z M 1.8885157,4.0001557 a 7.5,7.5 0 0 0 -0.8535157,3 h 2.9648438 v -3 z m 3.1113281,0 v 3 h 3 v -3 z m 3.9999995,0 v 3 h 2.9999997 v -3 z m 3.9999997,0 v 3 h 2.980469 a 7.5,7.5 0 0 0 -0.847657,-3 z M 1.035,8.000156 a 7.5,7.5 0 0 0 0.8535157,3 h 2.1113281 v -3 z m 3.9648438,0 v 3 h 3 v -3 z m 3.9999995,0 v 3 h 2.9999997 v -3 z m 3.9999997,0 v 3 h 2.111329 a 7.5,7.5 0 0 0 0.853515,-3 z m -10.4765617,4 a 7.5,7.5 0 0 0 1.4765625,1.476562 v -1.476562 z m 2.4765625,0 v 2.111328 a 7.5,7.5 0 0 0 3,0.853516 v -2.964844 z m 3.9999995,0 V 14.965 a 7.5,7.5 0 0 0 2.9999997,-0.853516 v -2.111328 z m 3.9999997,0 v 1.476562 a 7.5,7.5 0 0 0 1.476562,-1.476562 z"/>
</svg>
