<svg width="16" height="16" version="1.1" xmlns="http://www.w3.org/2000/svg">
 <defs>
  <style id="current-color-scheme" type="text/css">.ColorScheme-Text { color:#986c80; } .ColorScheme-Highlight { color:#4285f4; } .ColorScheme-NeutralText { color:#ff9800; } .ColorScheme-PositiveText { color:#4caf50; } .ColorScheme-NegativeText { color:#f44336; }</style>
 </defs>
 <path class="ColorScheme-Text" d="m1 1s-1 0-1 1v10c0 1 1 1 1 1h2l1 1h5v-2h-4l-1-1h-2v-8h1v2h1v-2h1v2h1v-2h1v2h1v-2h1v2h1v-2h1v2h1v-2h1v4c0.771566 0 1.471447 0.3008504 2 0.7890625v-5.7890625c0-1-1-1-1-1h-13zm12 7c-1.108 0-2 0.9112496-2 2.03125v0.96875h-1v4h6v-4h-1v-0.96875c0-1.1200004-0.892-2.03125-2-2.03125zm0 1c0.554 0 1 0.442 1 1v1h-2v-1c0-0.558 0.446-1 1-1z" style="fill:currentColor"/>
</svg>
