<svg xmlns="http://www.w3.org/2000/svg" width="16" height="16" version="1.1">
 <defs>
  <style id="current-color-scheme" type="text/css">
   .ColorScheme-Text { color:#986c80; } .ColorScheme-Highlight { color:#4285f4; } .ColorScheme-NeutralText { color:#ff9800; } .ColorScheme-PositiveText { color:#4caf50; } .ColorScheme-NegativeText { color:#f44336; }
  </style>
 </defs>
 <path style="fill:currentColor" class="ColorScheme-Text" d="m 4,2.0002488 c -2.216,0 -4,1.8111038 -4,4.0605469 L 0.0078125,8.0002488 C 0.0069725,8.0311077 0,8.0589293 0,8.0900926 c 0,0.026494 0.0073125,0.051732 0.0078125,0.078125 l 0.02148438,5.1578444 c -0.25174002,1.504365 1.18653122,2.456011 2.39453122,0.810546 l 2.1289063,-3.136719 h 6.8945316 l 2.128906,3.136719 c 1.208,1.645465 2.645531,0.693819 2.394531,-0.810546 l 0.02149,-5.1578444 C 15.993175,8.1418248 16,8.1165864 16,8.0900926 16,8.0656286 15.9932,8.0441426 15.9922,8.0197796 L 16,6.0607957 C 16,3.8113526 14.216,2.0002488 12,2.0002488 Z m 0,2 h 1 v 2 h 2 v 1 H 5 v 2 H 4 v -2 H 2 v -1 h 2 z m 7.75,0 c 0.414214,0 0.75,0.3357865 0.75,0.75 0,0.4142135 -0.335786,0.75 -0.75,0.75 -0.414214,0 -0.75,-0.3357865 -0.75,-0.75 0,-0.4142135 0.335786,-0.75 0.75,-0.75 z m -1.5,1.5 c 0.414214,0 0.75,0.3357865 0.75,0.75 0,0.4142135 -0.335786,0.75 -0.75,0.75 -0.4142135,0 -0.75,-0.3357865 -0.75,-0.75 0,-0.4142135 0.3357865,-0.75 0.75,-0.75 z m 3,0 c 0.414214,0 0.75,0.3357865 0.75,0.75 0,0.4142135 -0.335786,0.75 -0.75,0.75 -0.414214,0 -0.75,-0.3357865 -0.75,-0.75 0,-0.4142135 0.335786,-0.75 0.75,-0.75 z m -1.5,1.5 c 0.414214,0 0.75,0.3357865 0.75,0.75 0,0.4142135 -0.335786,0.75 -0.75,0.75 -0.414214,0 -0.75,-0.3357865 -0.75,-0.75 0,-0.4142135 0.335786,-0.75 0.75,-0.75 z"/>
</svg>
