<svg xmlns="http://www.w3.org/2000/svg" width="16" height="16" version="1.1">
 <defs>
  <style id="current-color-scheme" type="text/css">
   .ColorScheme-Text { color:#986c80; } .ColorScheme-Highlight { color:#4285f4; } .ColorScheme-NeutralText { color:#ff9800; } .ColorScheme-PositiveText { color:#4caf50; } .ColorScheme-NegativeText { color:#f44336; }
  </style>
 </defs>
 <path style="fill:currentColor;opacity:0.35" class="ColorScheme-Text" d="M 6.2226562 1 C 3.8375552 1 2 2.8218119 2 5.2070312 L 2 5.6972656 C 2 7.5191086 3.1289354 9.0805338 4.7265625 9.7167969 L 4.7265625 8.3632812 L 4.7265625 8.1230469 C 3.9863425 7.613658 3.5 6.661937 3.5 5.6972656 L 3.5 5.2070312 C 3.5 3.6505133 4.6661382 2.5 6.2226562 2.5 L 9.7773438 2.5 C 11.333861 2.5 12.5 3.6505133 12.5 5.2070312 L 12.5 5.6972656 C 12.5 7.2537825 11.333854 8.5045692 9.7773438 8.5 L 8 8.5 L 7.4277344 8.5 L 6.9609375 8.5 C 6.8453774 8.1731459 6.6474621 8.0000347 6.3007812 8 C 5.8489382 8 5.5 8.1848755 5.5 8.6367188 L 5.5 13.664062 C 5.5 14.037717 5.0102154 14.37908 4.6464844 14.464844 C 4.1235114 14.588175 3.5 14.190863 3.5 13.6875 L 3.5 11.603516 L 3.5 10.775391 C 3.5 10.334518 3.2416534 10 2.8007812 10 C 2.3600277 10 2 10.334518 2 10.775391 L 2 13.595703 C 2 14.9182 3.132582 16 4.4550781 16 C 5.7775751 16 7.0078125 14.9182 7.0078125 13.595703 L 7.0078125 11.984375 L 7.0078125 11.628906 L 7.0078125 10.892578 L 7.0078125 10.572266 L 7.0078125 10 L 8.9902344 10 L 8.9902344 13.595703 C 8.9902344 14.9182 10.222426 16 11.544922 16 C 12.867418 16 14.033271 14.917781 14 13.595703 L 14 11.603516 L 14 10.775391 C 14 10.334518 13.722121 10 13.28125 10 C 12.840497 10 12.5 10.334518 12.5 10.775391 L 12.5 13.587891 C 12.5 14.091254 12.027961 14.400391 11.5 14.400391 C 10.830711 14.400391 10.484659 13.937792 10.5 13.564453 L 10.5 11.130859 L 10.5 9.9667969 L 10.5 9.9121094 C 12.421312 9.4718284 14 7.7502951 14 5.6972656 L 14 5.2070312 C 14 2.8218119 12.162445 1 9.7773438 1 L 6.2226562 1 z M 0.75 7.0019531 C 0.33737189 7.0019531 7.4014868e-17 7.3614614 0 7.8007812 L 0 10.611328 C 0 11.649357 0.62819513 12.538356 1.5 12.869141 L 1.5 10.494141 L 1.5 8.6269531 L 1.5 7.8007812 C 1.5 7.3614613 1.1625182 7.0019531 0.75 7.0019531 z M 15.25 7.0019531 C 14.837373 7.0019531 14.5 7.3614613 14.5 7.8007812 L 14.5 12.869141 C 15.371806 12.538356 16 11.649357 16 10.611328 L 16 8.6269531 L 16 7.8007812 C 16 7.3614613 15.662519 7.0019531 15.25 7.0019531 z"/>
</svg>
