<svg xmlns="http://www.w3.org/2000/svg" width="16" height="16" version="1.1">
 <defs>
  <style id="current-color-scheme" type="text/css">
   .ColorScheme-Text { color:#986c80; } .ColorScheme-Highlight { color:#4285f4; } .ColorScheme-NeutralText { color:#ff9800; } .ColorScheme-PositiveText { color:#4caf50; } .ColorScheme-NegativeText { color:#f44336; }
  </style>
 </defs>
 <rect style="fill:currentColor" class="ColorScheme-Text" width="2" height="2" x="3" y="3" rx=".5" ry=".5"/>
 <rect style="fill:currentColor" class="ColorScheme-Text" width="2" height="2" x="7" y="3" rx=".5" ry=".5"/>
 <rect style="fill:currentColor" class="ColorScheme-Text" width="2" height="2" x="11" y="3" rx=".5" ry=".5"/>
 <rect style="fill:currentColor" class="ColorScheme-Text" width="2" height="2" x="3" y="7" rx=".5" ry=".5"/>
 <rect style="fill:currentColor" class="ColorScheme-Text" width="2" height="2" x="7" y="7" rx=".5" ry=".5"/>
 <rect style="fill:currentColor" class="ColorScheme-Text" width="2" height="2" x="11" y="7" rx=".5" ry=".5"/>
 <rect style="fill:currentColor" class="ColorScheme-Text" width="2" height="2" x="3" y="11" rx=".5" ry=".5"/>
 <rect style="fill:currentColor" class="ColorScheme-Text" width="2" height="2" x="7" y="11" rx=".5" ry=".5"/>
 <rect style="fill:currentColor" class="ColorScheme-Text" width="2" height="2" x="11" y="11" rx=".5" ry=".5"/>
</svg>
