<svg xmlns="http://www.w3.org/2000/svg" width="16" height="16" version="1.1">
 <defs>
  <style id="current-color-scheme" type="text/css">
   .ColorScheme-Text { color:#986c80; } .ColorScheme-Highlight { color:#4285f4; } .ColorScheme-NeutralText { color:#ff9800; } .ColorScheme-PositiveText { color:#4caf50; } .ColorScheme-NegativeText { color:#f44336; }
  </style>
 </defs>
 <path style="fill:currentColor" class="ColorScheme-Text" d="M 8,1 C 7.446,1 7,1.446 7,2 V 7.004 C 7,7.558 7.446,8.004 8,8.004 8.554,8.004 9,7.558 9,7.004 V 2 C 9,1.446 8.554,1 8,1 Z M 11.037,2.9883 A 1.0001,1.0001 0 0 0 10.844,3 1.0001,1.0001 0 0 0 10.406,4.8125 C 12.185,6.1429 12.549,8.628 11.219,10.406 9.888,12.185 7.372,12.518 5.5937,11.188 3.8152,9.857 3.4821,7.372 4.8125,5.5937 5.0291,5.3042 5.2764,5.0648 5.5625,4.8437 A 1.0032,1.0032 0 0 0 4.3437,3.25 C 3.9146,3.5816 3.5123,3.972 3.1875,4.4062 1.2097,7.05 1.7622,10.835 4.4062,12.813 7.05,14.79 10.835,14.238 12.813,11.594 14.79,8.95 14.238,5.1652 11.594,3.1875 A 1.0001,1.0001 0 0 0 11.037,2.9883 Z"/>
</svg>
