<svg xmlns="http://www.w3.org/2000/svg" width="16" height="16" version="1.1">
 <defs>
  <style id="current-color-scheme" type="text/css">
   .ColorScheme-Text { color:#986c80; } .ColorScheme-Highlight { color:#4285f4; } .ColorScheme-NeutralText { color:#ff9800; } .ColorScheme-PositiveText { color:#4caf50; } .ColorScheme-NegativeText { color:#f44336; }
  </style>
 </defs>
 <path style="fill:currentColor" class="ColorScheme-Text" d="M 10.8 1 C 8.93 1 7.95 1.32 7.56 2.75 C 6.51 3.27 6 3.89 6 4.54 C 6 4.54 6.89 4 8 4 C 10.17 4 12 5.83 12 8 C 12 10.16 10.14 12 8 12 C 5.83 12 4 10.16 4 8 C 4 6.4 5 5.35 5 5.35 C 5 3.85 4.85 2.75 4 2.5 C 3.86 2.5 3.85 2.61 3.85 2.61 C 3.71 3.78 3.12 4.14 2.81 4.58 C 2.34 5.24 2.05 6.12 2.05 6.95 C 1.88 6.58 1.75 6.13 1.65 5.73 C 1.64 5.68 1.58 5.55 1.5 5.55 C 1.39 5.55 1.3 5.81 1.29 5.85 C 1.1 6.47 1 7.37 1 8 C 1 12 4 15 8 15 C 12.04 15 15 12.07 15 8 C 15 6.89 14.77 5.59 14.3 4.5 C 14.13 4.15 13.84 3.74 13.6 3.45 C 13.9 3.37 14.31 3.43 14.64 3.49 C 14.21 2.99 13.65 2.83 12.9 2.75 C 13.09 2.33 13.5 2.02 14 2 C 13.17 1.29 12.15 1 10.8 1 z M 9.5 2 A 0.5 0.5 0 0 1 10 2.5 A 0.5 0.5 0 0 1 9.5 3 A 0.5 0.5 0 0 1 9 2.5 A 0.5 0.5 0 0 1 9.5 2 z"/>
 <path style="opacity:0.35;fill:currentColor" class="ColorScheme-Text" d="M 5.54,6.28 C 6.14,5.43 7.11,5 8,5 8.89,5 9.88,5.43 10.46,6.28 L 8,8 Z M 10.83,7 C 10.94,7.32 11,7.65 11,8 11,9.66 9.66,11 8,11 6.34,11 5,9.66 5,8 5,7.65 5.06,7.32 5.17,7 L 8,9 Z"/>
</svg>
