<svg xmlns="http://www.w3.org/2000/svg" width="16" height="16" version="1.1">
 <defs>
  <style id="current-color-scheme" type="text/css">
   .ColorScheme-Text { color:#986c80; } .ColorScheme-Highlight { color:#4285f4; } .ColorScheme-NeutralText { color:#ff9800; } .ColorScheme-PositiveText { color:#4caf50; } .ColorScheme-NegativeText { color:#f44336; }
  </style>
 </defs>
 <path style="fill:currentColor" class="ColorScheme-Text" d="M 8,1 C 5.92893,1 4.16529,2.2679201 3.40625,4.0625 1.47842,4.3491001 0,5.99242 0,8 c 0,1.083161 0.4305277,2.065766 1.1297949,2.786027 0,0 0,0 -0.1297949,-0.786027 V 9 C 1.0000552,8.447738 1.4477381,8.000055 2,8 H 7.193359 C 7.15894,7.892128 7.14309,7.779195 7.146484,7.666016 7.497628,6.672818 8.44457,6.00282 9.498047,6 H 9.5 c 1.252866,0 2.205409,0.991056 2.375,2.201172 C 12.088032,8.141459 12.270015,8.000611 12.498047,8 H 12.5 c 1.368866,0 2.5,1.131134 2.5,2.5 0,0.170444 -0.01743,0.336699 -0.05078,0.498047 C 15.597005,10.362847 16,9.478926 16,8.5 16,6.70346 14.64921,5.2313 12.90625,5.03125 12.45168,2.73786 10.42687,1 8,1 Z M 9.5,7 C 8.865815,7.0017 8.301237,7.402082 8.089844,8 H 10 V 9 H 9.5 8.089844 2 v 1 H 9.5 C 10.328427,10 11,9.328427 11,8.5 11,7.671573 10.328427,7 9.5,7 Z m 3,2 c -0.634185,0.0017 -1.198763,0.402082 -1.410156,1 H 13 v 1 H 12.5 11.089844 5 v 1 h 7.5 C 13.328427,12 14,11.328427 14,10.5 14,9.671573 13.328427,9 12.5,9 Z M 2,13 v 1 H 8.089844 9.5 10 v 1 H 8.089844 C 8.301237,15.597918 8.865815,15.998284 9.5,16 10.328427,16 11,15.328427 11,14.5 11,13.671573 10.328427,13 9.5,13 Z"/>
</svg>
