<svg xmlns="http://www.w3.org/2000/svg" width="32" height="32" version="1">
 <rect style="opacity:0.2" width="28" height="18" x="2" y="11" rx="1.4" ry="1.4"/>
 <path style="fill:#986c80" d="M 2,22.6 C 2,23.376 2.6244,24 3.4,24 H 28.6 C 29.376,24 30,23.376 30,22.6 V 7.4 C 30,6.6244 29.376,6 28.6,6 H 16 C 13.9,6 13.2,3 11.1,3 H 3.4 C 2.6244,3 2,3.6244 2,4.4"/>
 <rect style="opacity:0.2" width="28" height="18" x="2" y="9" rx="1.4" ry="1.4"/>
 <rect style="fill:#e4e4e4" width="24" height="11" x="4" y="8" rx="1.4" ry="1.4"/>
 <rect style="fill:#986c80" width="28" height="18" x="2" y="10" rx="1.4" ry="1.4"/>
 <path style="opacity:0.1;fill:#ffffff" d="M 3.4004,3 C 2.6248,3 2,3.6248 2,4.4004 V 5.4004 C 2,4.6248 2.6248,4 3.4004,4 H 11.1 C 13.2,4 13.9,7 16,7 H 28.6 C 29.375,7 30,7.6248 30,8.4004 V 7.4004 C 30,6.6248 29.375,6 28.6,6 H 16 C 13.9,6 13.2,3 11.1,3 Z"/>
 <path style="fill:#1b293b" d="M 16.873,12.001 C 16.662,12.009 16.452,12.088 16.281,12.241 L 13.346,14.796 C 13.185,14.942 13.078,15.14 13.045,15.354 L 12.804,16.946 13.508,17.378 C 14.2,17.831 15.191,18.566 15.654,19.811 L 15.75,20.068 C 15.988,20.035 16.492,20.004 16.492,20.004 16.106,18.883 15.975,17.974 16.008,17.208 16.047,16.309 16.318,15.617 16.592,15.054 16.592,15.054 16.728,14.781 16.795,14.653 16.992,14.269 17.159,13.944 17.244,13.618 17.337,13.253 17.353,12.973 17.195,12.458 L 17.08,12.017 C 17.012,12.004 16.943,11.998 16.873,12.001 Z M 18.305,13.116 C 18.307,13.382 18.273,13.631 18.213,13.866 18.092,14.337 17.882,14.729 17.686,15.11 L 17.488,15.495 C 17.24,16.005 17.038,16.527 17.006,17.251 16.976,17.95 17.117,18.858 17.594,20.092 17.797,20.133 17.999,20.191 18.199,20.266 19.194,20.637 20.088,21.45 20.805,22.838 21.33,22.053 21.743,21.422 21.94,21.092 22.033,20.926 22.017,20.716 21.902,20.562 21.599,20.164 21.019,19.345 20.703,18.591 20.378,17.813 20.485,16.602 20.481,16.017 20.481,15.792 20.418,15.569 20.272,15.399 Z M 12.597,17.993 11.083,21.365 C 10.925,21.717 10.997,22.129 11.267,22.406 L 13.759,24.717 C 13.829,24.79 13.923,24.857 14.033,24.908 L 14.131,24.719 C 15.233,22.482 15.164,21.25 14.728,20.189 14.34,19.241 13.577,18.617 12.961,18.214 Z M 16.787,21.035 C 16.526,21.037 16.255,21.064 15.978,21.105 16.085,22.154 15.862,23.416 15.099,25.012 15.323,25.019 15.571,25.03 15.847,25.051 16.652,25.107 17.836,25.742 18.643,25.965 19.27,26.139 19.9,25.635 19.986,24.99 20.032,24.646 20.109,24.291 20.234,23.938 20.147,23.756 20.066,23.602 20.066,23.602 19.399,22.162 18.649,21.499 17.85,21.201 V 21.203 C 17.518,21.079 17.162,21.032 16.787,21.035 Z"/>
</svg>
