/* XPM */
static char * title_5_inactive_xpm[] = {
"2 26 3 1",
" 	c None",
".	c #1b293b",
"+	c #1b293b",
"..",
"++",
"++",
"++",
"++",
"++",
"++",
"++",
"++",
"++",
"++",
"++",
"++",
"++",
"++",
"++",
"++",
"++",
"++",
"++",
"++",
"++",
"++",
"++",
"++",
"++"};
