<svg xmlns="http://www.w3.org/2000/svg" width="16" height="16" version="1.1">
 <defs>
  <style id="current-color-scheme" type="text/css">
   .ColorScheme-Text { color:#a47056; } .ColorScheme-Highlight { color:#4285f4; } .ColorScheme-NeutralText { color:#ff9800; } .ColorScheme-PositiveText { color:#4caf50; } .ColorScheme-NegativeText { color:#f44336; }
  </style>
 </defs>
 <path style="fill:currentColor" class="ColorScheme-Text" d="M 11,6 V 7 C 11,7 12,7 12,8.5 V 10 H 12.5 C 13,10 13,10.5 13,10.5 V 13.5 C 13,13.5 13,14 12.5,14 H 8.5 C 8,14 8,13.5 8,13.5 V 11 H 6 V 15 H 15 V 6 Z M 1,1 V 10 H 10 V 1 Z"/>
</svg>
