<svg xmlns="http://www.w3.org/2000/svg" width="16" height="16" version="1.1">
 <defs>
  <style id="current-color-scheme" type="text/css">
   .ColorScheme-Text { color:#a47056; } .ColorScheme-Highlight { color:#4285f4; } .ColorScheme-NeutralText { color:#ff9800; } .ColorScheme-PositiveText { color:#4caf50; } .ColorScheme-NegativeText { color:#f44336; }
  </style>
 </defs>
 <path style="fill:currentColor" class="ColorScheme-Text" d="M 0,2 V 14 H 10 L 16,8 10,2 Z M 4,4 H 5 V 5 H 4 C 3,5 3,6 3,6 V 7 C 3,7 3,7.5784 2.625,8 3,8.4216 3,9 3,9 V 10 C 3,10 3,11 4,11 H 5 V 12 H 4 C 2,12 2,10 2,10 V 9 C 2,8.5 1.5,8.5 1.5,8.5 H 1 V 7.5 H 1.5 C 1.5,7.5 2,7.5 2,7 V 6 C 2,6 2,4 4,4 Z M 6,4 H 7 C 9,4 9,6 9,6 V 7 C 9,7.5 9.5,7.5 9.5,7.5 H 10 V 8.5 H 9.5 C 9.5,8.5 9,8.5 9,9 V 10 C 9,10 9,12 7,12 H 6 V 11 H 7 C 8,11 8,10 8,10 V 9 C 8,9 8,8.4216 8.375,8 8,7.5784 8,7 8,7 V 6 C 8,6 8,5 7,5 H 6 Z"/>
</svg>
