<svg xmlns="http://www.w3.org/2000/svg" width="16" height="16" version="1.1">
 <defs>
  <style id="current-color-scheme" type="text/css">
   .ColorScheme-Text { color:#a47056; } .ColorScheme-Highlight { color:#4285f4; } .ColorScheme-NeutralText { color:#ff9800; } .ColorScheme-PositiveText { color:#4caf50; } .ColorScheme-NegativeText { color:#f44336; }
  </style>
 </defs>
 <path style="fill:currentColor" class="ColorScheme-Text" d="M 1.1425781 2 C 0.50943538 2 2.9605947e-16 2.5344189 0 3.1992188 L 0 12.800781 C 0 13.465581 0.50943536 14 1.1425781 14 L 14.857422 14 C 15.490565 14 16 13.465581 16 12.800781 L 16 3.1992188 C 16 2.5344187 15.490565 2 14.857422 2 L 1.1425781 2 z M 5 4 C 7.2090668 4 9 5.7909334 9 8 C 9 10.209066 7.2090668 12 5 12 C 2.7909333 12 1 10.209066 1 8 C 1 5.7909334 2.7909333 4 5 4 z M 10 4 L 15 4 L 15 5 L 10 5 L 10 4 z M 5 6 C 3.8954307 6 3.0000002 6.8954304 3 8 C 3.0000002 9.1045696 3.8954307 10 5 10 C 6.1045693 10 6.9999998 9.1045696 7 8 C 6.9999998 6.8954304 6.1045693 6 5 6 z M 10 6 L 15 6 L 15 7 L 10 7 L 10 6 z M 10 8 L 15 8 L 15 9 L 10 9 L 10 8 z M 11 10 A 1 1 0 0 1 12 11 A 1 1 0 0 1 11 12 A 1 1 0 0 1 10 11 A 1 1 0 0 1 11 10 z M 14 10 A 1 1 0 0 1 15 11 A 1 1 0 0 1 14 12 A 1 1 0 0 1 13 11 A 1 1 0 0 1 14 10 z"/>
</svg>
