<svg xmlns="http://www.w3.org/2000/svg" width="16" height="16" version="1.1">
 <defs>
  <style id="current-color-scheme" type="text/css">
   .ColorScheme-Text { color:#a47056; } .ColorScheme-Highlight { color:#4285f4; } .ColorScheme-NeutralText { color:#ff9800; } .ColorScheme-PositiveText { color:#4caf50; } .ColorScheme-NegativeText { color:#f44336; }
  </style>
 </defs>
 <path style="fill:currentColor" class="ColorScheme-Text" d="M 3 2 C 3 2 1 2 1 4 L 1 10 C 1 12 3 12 3 12 L 4 12 L 6 15 L 8 12 L 13 12 C 13 12 15 12 15 10 L 15 4 C 15 2 13 2 13 2 L 3 2 z M 3 4 L 13 4 L 13 10 L 6.9296875 10 L 6 11.394531 L 5.0703125 10 L 3 10 L 3 4 z M 4 5 L 4 6 L 7 6 L 7 5 L 4 5 z M 4 7 L 4 8 L 10 8 L 10 7 L 4 7 z"/>
</svg>
